<svg width="429" height="159" viewBox="0 0 429 159" fill="none" xmlns="http://www.w3.org/2000/svg">
<rect x="55.0189" width="12" height="100" fill="#678092"/>
<rect x="59.0189" y="14" width="5" height="67" rx="2.5" fill="#80A0B6"/>
<rect x="367.019" width="12" height="100" fill="#678092"/>
<rect x="371.019" y="14" width="5" height="67" rx="2.5" fill="#80A0B6"/>
<rect x="10" y="97" width="408.151" height="52" rx="6" fill="#0D3449" stroke="#678092" stroke-width="20"/>
<rect x="10" y="97" width="408.151" height="52" rx="26" stroke="#80A0B6" stroke-width="8" stroke-linecap="round" stroke-linejoin="round" stroke-dasharray="1 60"/>
<path d="M146.974 114.594H151.568C152.036 114.594 152.474 114.629 152.88 114.699C153.294 114.762 153.626 114.91 153.876 115.145C154.134 115.379 154.263 115.75 154.263 116.258C154.263 116.766 154.134 117.137 153.876 117.371C153.626 117.605 153.294 117.758 152.88 117.828C152.474 117.891 152.036 117.922 151.568 117.922H148.779V121.109H150.255C150.716 121.109 151.146 121.141 151.544 121.203C151.943 121.258 152.263 121.398 152.505 121.625C152.755 121.844 152.88 122.203 152.88 122.703C152.88 123.203 152.755 123.566 152.505 123.793C152.263 124.012 151.943 124.152 151.544 124.215C151.146 124.27 150.716 124.297 150.255 124.297H148.779V127.672H151.568C152.036 127.672 152.474 127.703 152.88 127.766C153.294 127.828 153.626 127.977 153.876 128.211C154.134 128.438 154.263 128.805 154.263 129.312C154.263 129.828 154.134 130.207 153.876 130.449C153.618 130.684 153.282 130.836 152.868 130.906C152.462 130.969 152.029 131 151.568 131H146.974C146.419 131 146.017 130.879 145.767 130.637C145.525 130.395 145.372 130.07 145.31 129.664C145.247 129.258 145.216 128.805 145.216 128.305V117.289C145.216 116.789 145.247 116.336 145.31 115.93C145.372 115.523 145.525 115.199 145.767 114.957C146.017 114.715 146.419 114.594 146.974 114.594ZM162.138 116.047L165.865 126.148H166.146V116.422C166.146 115.867 166.24 115.426 166.427 115.098C166.622 114.762 167.052 114.594 167.716 114.594C168.458 114.594 168.931 114.754 169.134 115.074C169.345 115.395 169.45 115.844 169.45 116.422V128.305C169.45 128.812 169.419 129.273 169.357 129.688C169.302 130.094 169.154 130.414 168.911 130.648C168.669 130.883 168.271 131 167.716 131H166.169C165.724 131 165.361 130.895 165.079 130.684C164.798 130.473 164.575 130.215 164.411 129.91C164.247 129.605 164.115 129.312 164.013 129.031L160.474 119.445H160.193V129.172C160.193 129.727 160.099 130.172 159.911 130.508C159.724 130.836 159.294 131 158.622 131C157.872 131 157.392 130.84 157.181 130.52C156.97 130.199 156.865 129.75 156.865 129.172V117.289C156.865 116.781 156.892 116.324 156.947 115.918C157.009 115.512 157.165 115.191 157.415 114.957C157.665 114.715 158.068 114.594 158.622 114.594H160.169C160.56 114.594 160.876 114.672 161.118 114.828C161.368 114.977 161.572 115.141 161.728 115.32C161.884 115.508 162.021 115.75 162.138 116.047ZM174.466 114.594H179.06C179.529 114.594 179.966 114.629 180.372 114.699C180.786 114.762 181.118 114.91 181.368 115.145C181.626 115.379 181.755 115.75 181.755 116.258C181.755 116.766 181.626 117.137 181.368 117.371C181.118 117.605 180.786 117.758 180.372 117.828C179.966 117.891 179.529 117.922 179.06 117.922H176.271V121.109H177.747C178.208 121.109 178.638 121.141 179.036 121.203C179.435 121.258 179.755 121.398 179.997 121.625C180.247 121.844 180.372 122.203 180.372 122.703C180.372 123.203 180.247 123.566 179.997 123.793C179.755 124.012 179.435 124.152 179.036 124.215C178.638 124.27 178.208 124.297 177.747 124.297H176.271V127.672H179.06C179.529 127.672 179.966 127.703 180.372 127.766C180.786 127.828 181.118 127.977 181.368 128.211C181.626 128.438 181.755 128.805 181.755 129.312C181.755 129.828 181.626 130.207 181.368 130.449C181.111 130.684 180.775 130.836 180.361 130.906C179.954 130.969 179.521 131 179.06 131H174.466C173.911 131 173.509 130.879 173.259 130.637C173.017 130.395 172.865 130.07 172.802 129.664C172.74 129.258 172.708 128.805 172.708 128.305V117.289C172.708 116.789 172.74 116.336 172.802 115.93C172.865 115.523 173.017 115.199 173.259 114.957C173.509 114.715 173.911 114.594 174.466 114.594ZM192.044 127.203H191.81C191.396 127.203 191.072 127.059 190.837 126.77C190.603 126.473 190.427 126.156 190.31 125.82L188.083 119.398H187.779V129.172C187.779 129.727 187.685 130.172 187.497 130.508C187.31 130.836 186.88 131 186.208 131C185.458 131 184.978 130.84 184.767 130.52C184.556 130.199 184.45 129.75 184.45 129.172V117.266C184.45 116.766 184.478 116.316 184.532 115.918C184.595 115.512 184.747 115.191 184.99 114.957C185.24 114.715 185.646 114.594 186.208 114.594H187.802C188.208 114.594 188.529 114.629 188.763 114.699C188.997 114.77 189.228 114.992 189.454 115.367C189.595 115.594 189.763 115.945 189.958 116.422C190.138 116.875 190.349 117.457 190.591 118.168C190.833 118.879 191.13 119.75 191.482 120.781L191.786 121.719H192.068L192.443 120.547C192.599 120.055 192.747 119.602 192.888 119.188C193.029 118.766 193.154 118.387 193.263 118.051C193.49 117.371 193.689 116.812 193.861 116.375C194.032 115.93 194.189 115.586 194.329 115.344C194.532 114.984 194.747 114.77 194.974 114.699C195.208 114.629 195.521 114.594 195.911 114.594H197.622C198.185 114.594 198.587 114.715 198.829 114.957C199.079 115.191 199.232 115.512 199.286 115.918C199.349 116.316 199.38 116.766 199.38 117.266V129.172C199.38 129.75 199.275 130.199 199.064 130.52C198.853 130.84 198.372 131 197.622 131C196.958 131 196.529 130.836 196.333 130.508C196.146 130.172 196.052 129.727 196.052 129.172V119.398H195.724L193.521 125.82C193.388 126.156 193.212 126.473 192.993 126.77C192.782 127.059 192.466 127.203 192.044 127.203ZM212.482 118.039L208.966 124.273V128.352C208.966 128.828 208.927 129.27 208.849 129.676C208.771 130.074 208.607 130.395 208.357 130.637C208.115 130.879 207.732 131 207.208 131C206.685 131 206.294 130.879 206.036 130.637C205.786 130.395 205.622 130.074 205.544 129.676C205.466 129.27 205.427 128.828 205.427 128.352V124.273L201.935 118.039C201.747 117.711 201.568 117.391 201.396 117.078C201.224 116.758 201.138 116.438 201.138 116.117C201.138 115.906 201.197 115.695 201.314 115.484C201.439 115.266 201.661 115.062 201.982 114.875C202.333 114.688 202.661 114.594 202.966 114.594C203.427 114.594 203.81 114.785 204.115 115.168C204.427 115.543 204.685 115.953 204.888 116.398L207.021 120.875H207.396L209.529 116.398C209.732 115.953 209.986 115.543 210.29 115.168C210.603 114.785 210.99 114.594 211.45 114.594C211.747 114.594 212.075 114.688 212.435 114.875C212.74 115.062 212.954 115.266 213.079 115.484C213.212 115.695 213.279 115.906 213.279 116.117C213.279 116.266 213.216 116.492 213.091 116.797C213.029 116.953 212.947 117.137 212.845 117.348C212.743 117.559 212.622 117.789 212.482 118.039ZM222.068 114.594H225.466C226.161 114.594 226.818 114.684 227.435 114.863C228.052 115.043 228.587 115.312 229.04 115.672C229.501 116.031 229.861 116.48 230.118 117.02C230.376 117.551 230.505 118.172 230.505 118.883C230.505 119.25 230.458 119.582 230.365 119.879C230.263 120.184 230.134 120.457 229.978 120.699C229.829 120.941 229.665 121.152 229.486 121.332C229.29 121.52 229.06 121.707 228.794 121.895C228.536 122.082 228.341 122.195 228.208 122.234C228.661 122.359 229.056 122.527 229.392 122.738C229.712 122.949 229.978 123.18 230.189 123.43C230.407 123.672 230.579 123.922 230.704 124.18C230.868 124.547 230.974 124.898 231.021 125.234C231.068 125.57 231.091 125.867 231.091 126.125C231.091 126.734 231.017 127.27 230.868 127.73C230.72 128.191 230.525 128.594 230.282 128.938C230.04 129.273 229.763 129.562 229.45 129.805C229.138 130.047 228.822 130.242 228.501 130.391C227.751 130.75 226.888 130.953 225.911 131H222.068C221.505 131 221.099 130.883 220.849 130.648C220.599 130.414 220.443 130.094 220.38 129.688C220.318 129.281 220.286 128.82 220.286 128.305V117.266C220.286 116.758 220.318 116.305 220.38 115.906C220.443 115.5 220.599 115.18 220.849 114.945C221.099 114.711 221.505 114.594 222.068 114.594ZM225.255 117.359H223.849V121.344H225.349C225.669 121.336 225.97 121.258 226.251 121.109C226.517 120.977 226.732 120.777 226.896 120.512C227.068 120.238 227.154 119.891 227.154 119.469C227.154 118.984 227.064 118.598 226.884 118.309C226.704 118.02 226.478 117.793 226.204 117.629C225.939 117.488 225.622 117.398 225.255 117.359ZM225.466 123.828H223.849V128.234H225.56C225.904 128.227 226.232 128.141 226.544 127.977C226.833 127.836 227.068 127.613 227.247 127.309C227.435 126.996 227.529 126.602 227.529 126.125C227.529 125.617 227.431 125.199 227.236 124.871C227.04 124.543 226.794 124.293 226.497 124.121C226.2 123.965 225.857 123.867 225.466 123.828ZM233.036 126.242V119.234C233.036 118.469 233.146 117.828 233.365 117.312C233.583 116.781 233.865 116.34 234.208 115.988C234.552 115.637 234.927 115.363 235.333 115.168C235.536 115.066 235.736 114.98 235.931 114.91C236.134 114.84 236.333 114.777 236.529 114.723C236.919 114.621 237.267 114.559 237.572 114.535C237.884 114.512 238.115 114.5 238.263 114.5H238.661C238.81 114.5 239.04 114.512 239.353 114.535C239.665 114.559 240.013 114.621 240.396 114.723C240.786 114.816 241.185 114.965 241.591 115.168C241.982 115.355 242.353 115.633 242.704 116C243.032 116.352 243.302 116.793 243.513 117.324C243.732 117.848 243.841 118.484 243.841 119.234V126.242C243.841 127.016 243.736 127.672 243.525 128.211C243.306 128.75 243.032 129.199 242.704 129.559C242.376 129.918 242.005 130.199 241.591 130.402C241.2 130.605 240.802 130.762 240.396 130.871C240.013 130.973 239.665 131.035 239.353 131.059C239.04 131.082 238.81 131.094 238.661 131.094H238.263C238.122 131.094 237.892 131.082 237.572 131.059C237.259 131.035 236.911 130.973 236.529 130.871C236.146 130.77 235.747 130.613 235.333 130.402C234.927 130.199 234.552 129.918 234.208 129.559C233.872 129.199 233.591 128.75 233.365 128.211C233.146 127.672 233.036 127.016 233.036 126.242ZM236.927 119.047V126.688C236.935 126.961 237.001 127.215 237.126 127.449C237.228 127.645 237.38 127.82 237.583 127.977C237.794 128.133 238.091 128.211 238.474 128.211C238.849 128.211 239.138 128.133 239.341 127.977C239.544 127.82 239.697 127.645 239.798 127.449C239.907 127.215 239.974 126.961 239.997 126.688V119.047C239.974 118.773 239.907 118.52 239.798 118.285C239.697 118.098 239.544 117.926 239.341 117.77C239.138 117.605 238.849 117.523 238.474 117.523C238.091 117.523 237.794 117.605 237.583 117.77C237.38 117.926 237.228 118.098 237.126 118.285C237.001 118.512 236.935 118.766 236.927 119.047ZM254.083 116.797L256.521 125.07C256.529 125.336 256.536 125.605 256.544 125.879C256.56 126.152 256.572 126.426 256.579 126.699C256.603 127.246 256.615 127.781 256.615 128.305V128.656C256.615 129.102 256.583 129.5 256.521 129.852C256.466 130.203 256.325 130.484 256.099 130.695C255.872 130.898 255.505 131 254.997 131C254.49 131 254.118 130.898 253.884 130.695C253.65 130.484 253.501 130.203 253.439 129.852C253.384 129.5 253.357 129.102 253.357 128.656V127.016H248.669V128.656C248.669 129.102 248.638 129.5 248.575 129.852C248.521 130.203 248.376 130.484 248.142 130.695C247.915 130.898 247.544 131 247.029 131C246.513 131 246.142 130.898 245.915 130.695C245.689 130.484 245.548 130.203 245.493 129.852C245.439 129.5 245.411 129.102 245.411 128.656V128.305C245.411 128.031 245.415 127.695 245.423 127.297C245.431 126.898 245.439 126.496 245.447 126.09C245.462 125.684 245.474 125.344 245.482 125.07C245.677 124.391 245.876 123.707 246.079 123.02C246.282 122.324 246.493 121.629 246.712 120.934C246.931 120.238 247.142 119.547 247.345 118.859C247.548 118.172 247.747 117.484 247.943 116.797C248.122 116.148 248.376 115.621 248.704 115.215C249.04 114.801 249.615 114.594 250.427 114.594H251.599C252.435 114.594 253.009 114.801 253.322 115.215C253.634 115.621 253.888 116.148 254.083 116.797ZM251.154 117.641H250.896L249.161 123.922H252.888L251.154 117.641ZM259.146 128.281V117.266C259.146 116.766 259.173 116.316 259.228 115.918C259.29 115.512 259.447 115.191 259.697 114.957C259.947 114.715 260.349 114.594 260.904 114.594H264.771C265.74 114.641 266.599 114.844 267.349 115.203C267.669 115.359 267.982 115.551 268.286 115.777C268.599 116.004 268.876 116.289 269.118 116.633C269.361 116.969 269.556 117.371 269.704 117.84C269.853 118.301 269.927 118.836 269.927 119.445C269.927 119.703 269.888 120 269.81 120.336C269.732 120.672 269.603 121.023 269.423 121.391C269.306 121.641 269.13 121.895 268.896 122.152C268.677 122.395 268.407 122.617 268.087 122.82C267.775 123.023 267.404 123.188 266.974 123.312C267.615 123.562 268.169 123.957 268.638 124.496C269.107 125.035 269.341 125.781 269.341 126.734V128.398C269.341 128.492 269.365 128.57 269.411 128.633C269.458 128.695 269.505 128.75 269.552 128.797C269.732 128.977 269.841 129.137 269.88 129.277C269.911 129.402 269.927 129.516 269.927 129.617C269.927 130.141 269.736 130.52 269.353 130.754C268.97 130.98 268.536 131.094 268.052 131.094C267.505 131.094 266.993 130.93 266.517 130.602C266.04 130.266 265.802 129.805 265.802 129.219V126.734C265.802 126.016 265.685 125.441 265.45 125.012C265.216 124.582 264.732 124.367 263.997 124.367H262.685V128.281C262.685 128.797 262.654 129.262 262.591 129.676C262.529 130.082 262.372 130.406 262.122 130.648C261.88 130.883 261.474 131 260.904 131C260.349 131 259.947 130.883 259.697 130.648C259.447 130.406 259.29 130.082 259.228 129.676C259.173 129.262 259.146 128.797 259.146 128.281ZM262.685 117.359V121.742H264.279C264.669 121.727 265.021 121.633 265.333 121.461C265.646 121.297 265.9 121.051 266.095 120.723C266.29 120.395 266.388 119.969 266.388 119.445C266.388 118.977 266.29 118.59 266.095 118.285C265.907 117.98 265.669 117.758 265.38 117.617C265.099 117.469 264.763 117.383 264.372 117.359H262.685ZM274.216 114.594H277.615C279.091 114.594 280.29 114.949 281.212 115.66C281.673 116.02 282.032 116.465 282.29 116.996C282.548 117.527 282.677 118.148 282.677 118.859V126.125C282.677 126.734 282.611 127.27 282.478 127.73C282.345 128.191 282.173 128.594 281.962 128.938C281.743 129.273 281.497 129.562 281.224 129.805C280.95 130.047 280.673 130.242 280.392 130.391C279.736 130.75 278.974 130.953 278.107 131H274.216C273.654 131 273.247 130.883 272.997 130.648C272.747 130.414 272.591 130.094 272.529 129.688C272.466 129.281 272.435 128.82 272.435 128.305V117.266C272.435 116.758 272.466 116.305 272.529 115.906C272.591 115.5 272.747 115.18 272.997 114.945C273.247 114.711 273.654 114.594 274.216 114.594ZM277.521 117.336H275.997V128.211H277.521C277.841 128.203 278.142 128.125 278.423 127.977C278.689 127.844 278.904 127.645 279.068 127.379C279.24 127.105 279.325 126.758 279.325 126.336V119.422C279.325 118.961 279.24 118.578 279.068 118.273C278.904 117.969 278.689 117.742 278.423 117.594C278.157 117.445 277.857 117.359 277.521 117.336Z" fill="white"/>
</svg>
