<svg width="1442" height="238" viewBox="0 0 1442 238" fill="none" xmlns="http://www.w3.org/2000/svg">
<rect width="1442" height="1017" transform="translate(-34 -1017)" fill="white"/>
<path d="M26.0834 -753.242H25.5834V-752.742V-72.0298V-0.204285H0.547241V-72.0298V-778.141H1441.55V-173.78V-0.204285H1416.51V-173.78V-752.742V-753.242H1416.01H26.0834Z" fill="#678092" stroke="black"/>
<mask id="mask0_36_986" style="mask-type:luminance" maskUnits="userSpaceOnUse" x="0" y="13" width="1443" height="226">
<path d="M704.024 23.2056V125.802H602.883V23.2056C602.883 20.5638 601.828 18.0302 599.95 16.1622C598.072 14.2942 595.525 13.2448 592.869 13.2448H0.0472412V238.359H1442.05V13.2448H714.038C711.382 13.2448 708.835 14.2942 706.957 16.1622C705.079 18.0302 704.024 20.5638 704.024 23.2056Z" fill="white"/>
</mask>
<g mask="url(#mask0_36_986)">
<path d="M704.024 23.2056V125.802H602.883V23.2056C602.883 20.5638 601.828 18.0302 599.95 16.1622C598.072 14.2942 595.525 13.2448 592.869 13.2448H0.0472412V238.359H1442.05V13.2448H714.038C711.382 13.2448 708.835 14.2942 706.957 16.1622C705.079 18.0302 704.024 20.5638 704.024 23.2056Z" fill="#315A79"/>
<path d="M1447.05 168.634H-150.161V223.418H1447.05V168.634Z" fill="#114263"/>
<path d="M1459.07 195.528H-36.0028V251.308H1459.07V195.528Z" fill="#315A79"/>
<path d="M1459.07 78.9862H781.131V134.767H1459.07V78.9862Z" fill="#114263"/>
<g style="mix-blend-mode:overlay">
<path d="M346.218 -657.924L267.319 -683.924L-55.647 285.758L23.2511 311.758L346.218 -657.924Z" fill="#999999"/>
</g>
<g style="mix-blend-mode:overlay">
<path d="M598.124 -574.919L519.226 -600.919L196.26 368.763L275.158 394.763L598.124 -574.919Z" fill="#999999"/>
</g>
<g style="mix-blend-mode:overlay">
<path d="M1215.7 -392.368L1136.8 -418.368L813.832 551.313L892.73 577.314L1215.7 -392.368Z" fill="#999999"/>
</g>
<g style="mix-blend-mode:overlay">
<path d="M1111.14 -426.828L962.847 -475.696L639.88 493.985L788.171 542.853L1111.14 -426.828Z" fill="#999999"/>
</g>
<g style="mix-blend-mode:overlay">
<path d="M1421.99 -324.391L1363.05 -343.813L1040.08 625.869L1099.02 645.291L1421.99 -324.391Z" fill="#999999"/>
</g>
<path d="M516.764 78.9862H-150.161V134.767H516.764V78.9862Z" fill="#114263"/>
<path d="M516.764 95.9196H452.735V184.571H516.764V95.9196Z" fill="#114263"/>
<path d="M877.264 95.9196H781.131V184.571H877.264V95.9196Z" fill="#114263"/>
<path d="M612.897 125.802H602.883V244.336H612.897V125.802Z" fill="#114263"/>
<path d="M704.024 125.802H694.01V244.336H704.024V125.802Z" fill="#114263"/>
</g>
<path d="M517.765 59.0645H113.204C107.674 59.0645 103.19 63.5241 103.19 69.0253V89.9431C103.19 95.4443 107.674 99.9039 113.204 99.9039H517.765C523.296 99.9039 527.779 95.4443 527.779 89.9431V69.0253C527.779 63.5241 523.296 59.0645 517.765 59.0645Z" fill="#0D3449"/>
<path d="M1190.98 59.0645H780.85C776.028 59.0645 772.118 62.9533 772.118 67.7503V91.2181C772.118 96.0151 776.028 99.9039 780.85 99.9039H1190.98C1195.8 99.9039 1199.71 96.0151 1199.71 91.2181V67.7503C1199.71 62.9533 1195.8 59.0645 1190.98 59.0645Z" fill="#0D3449"/>
<path d="M519.047 110.861H111.922C107.1 110.861 103.19 114.75 103.19 119.547V177.877C103.19 182.674 107.1 186.563 111.922 186.563H519.047C523.87 186.563 527.779 182.674 527.779 177.877V119.547C527.779 114.75 523.87 110.861 519.047 110.861Z" fill="#0D3449"/>
<path d="M676.616 87.9509H657.078C653.141 87.9509 649.949 91.1262 649.949 95.043V101.029C649.949 104.946 653.141 108.122 657.078 108.122H676.616C680.553 108.122 683.745 104.946 683.745 101.029V95.043C683.745 91.1262 680.553 87.9509 676.616 87.9509Z" fill="#CC538A"/>
<path d="M685.999 102.145H646.944V116.339H685.999V102.145Z" fill="#1B538A"/>
<path d="M581.353 49.6018H536.291C535.185 49.6018 534.288 50.4937 534.288 51.594V98.4098C534.288 99.5101 535.185 100.402 536.291 100.402H581.353C582.46 100.402 583.356 99.5101 583.356 98.4098V51.594C583.356 50.4937 582.46 49.6018 581.353 49.6018Z" fill="#698295"/>
<path d="M693.739 150.704H613.168C611.359 150.704 609.893 152.162 609.893 153.961V224.145C609.893 225.944 611.359 227.402 613.168 227.402H693.739C695.548 227.402 697.014 225.944 697.014 224.145V153.961C697.014 152.162 695.548 150.704 693.739 150.704Z" fill="#698295"/>
<path d="M580.713 106.877H537.933C536.197 106.877 534.789 108.277 534.789 110.004V229.255C534.789 230.983 536.197 232.383 537.933 232.383H580.713C582.449 232.383 583.857 230.983 583.857 229.255V110.004C583.857 108.277 582.449 106.877 580.713 106.877Z" fill="#698295"/>
<path d="M742.006 182.579H728.127C727.535 182.579 727.056 183.056 727.056 183.645V226.337C727.056 226.925 727.535 227.402 728.127 227.402H742.006C742.598 227.402 743.078 226.925 743.078 226.337V183.645C743.078 183.056 742.598 182.579 742.006 182.579Z" fill="#698295"/>
<path d="M741.596 75.998H728.538C727.719 75.998 727.056 76.6581 727.056 77.4722V159.191C727.056 160.005 727.719 160.665 728.538 160.665H741.596C742.414 160.665 743.078 160.005 743.078 159.191V77.4722C743.078 76.6581 742.414 75.998 741.596 75.998Z" fill="#698295"/>
<path d="M738.692 84.7735C738.692 82.6775 736.984 80.9784 734.876 80.9784C732.769 80.9784 731.061 82.6775 731.061 84.7735V151.889C731.061 153.985 732.769 155.685 734.876 155.685C736.984 155.685 738.692 153.985 738.692 151.889V84.7735Z" fill="#32444C"/>
<path d="M580.853 33.6646H536.291C535.185 33.6646 534.288 34.5565 534.288 35.6567V41.6332C534.288 42.7334 535.185 43.6254 536.291 43.6254H580.853C581.959 43.6254 582.856 42.7334 582.856 41.6332V35.6567C582.856 34.5565 581.959 33.6646 580.853 33.6646Z" fill="#ABCADD"/>
<path d="M525.206 34.6606H481.785C480.364 34.6606 479.212 35.8067 479.212 37.2205V48.536C479.212 49.9498 480.364 51.0959 481.785 51.0959H525.206C526.627 51.0959 527.779 49.9498 527.779 48.536V37.2205C527.779 35.8067 526.627 34.6606 525.206 34.6606Z" fill="#5EB5E5"/>
<path d="M399.682 34.1625H236.796C234.075 34.1625 231.869 36.3566 231.869 39.0632V46.1952C231.869 48.9018 234.075 51.0959 236.796 51.0959H399.682C402.403 51.0959 404.608 48.9018 404.608 46.1952V39.0632C404.608 36.3566 402.403 34.1625 399.682 34.1625Z" fill="#ABCADD"/>
<path d="M165.286 34.6606H105.684C104.03 34.6606 102.69 35.994 102.69 37.6389V48.1177C102.69 49.7625 104.03 51.0959 105.684 51.0959H165.286C166.94 51.0959 168.281 49.7625 168.281 48.1177V37.6389C168.281 35.994 166.94 34.6606 165.286 34.6606Z" fill="#ABCADD"/>
<path d="M164.525 202.5H106.445C104.371 202.5 102.69 204.173 102.69 206.236V224.663C102.69 226.726 104.371 228.399 106.445 228.399H164.525C166.599 228.399 168.281 226.726 168.281 224.663V206.236C168.281 204.173 166.599 202.5 164.525 202.5Z" fill="#ABCADD"/>
<path d="M178.785 202.5H175.3C173.912 202.5 172.787 203.62 172.787 205.001V225.898C172.787 227.279 173.912 228.399 175.3 228.399H178.785C180.173 228.399 181.299 227.279 181.299 225.898V205.001C181.299 203.62 180.173 202.5 178.785 202.5Z" fill="#ABCADD"/>
<path d="M557.961 112.853H539.656C539.18 112.853 538.794 113.236 538.794 113.71V116.479C538.794 116.952 539.18 117.335 539.656 117.335H557.961C558.437 117.335 558.822 116.952 558.822 116.479V113.71C558.822 113.236 558.437 112.853 557.961 112.853Z" fill="#5EB5E5"/>
<path d="M579.601 120.822H540.046C539.355 120.822 538.794 121.379 538.794 122.067V124.059C538.794 124.747 539.355 125.304 540.046 125.304H579.601C580.292 125.304 580.853 124.747 580.853 124.059V122.067C580.853 121.379 580.292 120.822 579.601 120.822Z" fill="#EF4B9D"/>
<path d="M557.961 132.775H539.656C539.18 132.775 538.794 133.158 538.794 133.631V136.4C538.794 136.874 539.18 137.257 539.656 137.257H557.961C558.437 137.257 558.822 136.874 558.822 136.4V133.631C558.822 133.158 558.437 132.775 557.961 132.775Z" fill="#5EB5E5"/>
<path d="M579.601 140.743H540.046C539.355 140.743 538.794 141.301 538.794 141.988V143.981C538.794 144.668 539.355 145.226 540.046 145.226H579.601C580.292 145.226 580.853 144.668 580.853 143.981V141.988C580.853 141.301 580.292 140.743 579.601 140.743Z" fill="#EF4B9D"/>
<path d="M557.961 152.696H539.656C539.18 152.696 538.794 153.08 538.794 153.553V156.322C538.794 156.795 539.18 157.179 539.656 157.179H557.961C558.437 157.179 558.822 156.795 558.822 156.322V153.553C558.822 153.08 558.437 152.696 557.961 152.696Z" fill="#5EB5E5"/>
<path d="M579.992 152.696H561.686C561.211 152.696 560.825 153.08 560.825 153.553V156.322C560.825 156.795 561.211 157.179 561.686 157.179H579.992C580.467 157.179 580.853 156.795 580.853 156.322V153.553C580.853 153.08 580.467 152.696 579.992 152.696Z" fill="#5EB5E5"/>
<path d="M579.601 160.665H540.046C539.355 160.665 538.794 161.222 538.794 161.91V163.902C538.794 164.59 539.355 165.147 540.046 165.147H579.601C580.292 165.147 580.853 164.59 580.853 163.902V161.91C580.853 161.222 580.292 160.665 579.601 160.665Z" fill="#EF4B9D"/>
<path d="M557.961 172.618H539.656C539.18 172.618 538.794 173.001 538.794 173.475V176.244C538.794 176.717 539.18 177.1 539.656 177.1H557.961C558.437 177.1 558.822 176.717 558.822 176.244V173.475C558.822 173.001 558.437 172.618 557.961 172.618Z" fill="#5EB5E5"/>
<path d="M579.601 180.587H540.046C539.355 180.587 538.794 181.144 538.794 181.832V183.824C538.794 184.512 539.355 185.069 540.046 185.069H579.601C580.292 185.069 580.853 184.512 580.853 183.824V181.832C580.853 181.144 580.292 180.587 579.601 180.587Z" fill="#EF4B9D"/>
<path d="M557.961 192.54H539.656C539.18 192.54 538.794 192.923 538.794 193.396V196.165C538.794 196.638 539.18 197.022 539.656 197.022H557.961C558.437 197.022 558.822 196.638 558.822 196.165V193.396C558.822 192.923 558.437 192.54 557.961 192.54Z" fill="#5EB5E5"/>
<path d="M579.992 192.54H561.686C561.211 192.54 560.825 192.923 560.825 193.396V196.165C560.825 196.638 561.211 197.022 561.686 197.022H579.992C580.467 197.022 580.853 196.638 580.853 196.165V193.396C580.853 192.923 580.467 192.54 579.992 192.54Z" fill="#5EB5E5"/>
<path d="M579.601 200.508H540.046C539.355 200.508 538.794 201.066 538.794 201.753V203.746C538.794 204.433 539.355 204.991 540.046 204.991H579.601C580.292 204.991 580.853 204.433 580.853 203.746V201.753C580.853 201.066 580.292 200.508 579.601 200.508Z" fill="#EF4B9D"/>
<path d="M557.961 212.461H539.656C539.18 212.461 538.794 212.845 538.794 213.318V216.087C538.794 216.56 539.18 216.944 539.656 216.944H557.961C558.437 216.944 558.822 216.56 558.822 216.087V213.318C558.822 212.845 558.437 212.461 557.961 212.461Z" fill="#5EB5E5"/>
<path d="M579.601 220.43H540.046C539.355 220.43 538.794 220.987 538.794 221.675V223.667C538.794 224.355 539.355 224.912 540.046 224.912H579.601C580.292 224.912 580.853 224.355 580.853 223.667V221.675C580.853 220.987 580.292 220.43 579.601 220.43Z" fill="#EF4B9D"/>
<path d="M576.847 76.496H539.796V74.5038C539.796 69.6165 541.748 64.9294 545.222 61.4736C548.696 58.0178 553.408 56.0763 558.322 56.0763C563.235 56.0763 567.947 58.0178 571.421 61.4736C574.895 64.9294 576.847 69.6165 576.847 74.5038V76.496ZM543.942 72.5117H572.701C572.216 69.0616 570.493 65.9023 567.851 63.616C565.208 61.3298 561.824 60.0707 558.322 60.0707C554.819 60.0707 551.435 61.3298 548.792 63.616C546.15 65.9023 544.427 69.0616 543.942 72.5117Z" fill="#4A6270"/>
<path d="M558.322 90.9392C566.894 90.9392 573.843 84.0268 573.843 75.4999C573.843 66.973 566.894 60.0606 558.322 60.0606C549.749 60.0606 542.8 66.973 542.8 75.4999C542.8 84.0268 549.749 90.9392 558.322 90.9392Z" fill="#88A6B5"/>
<path d="M557.821 75.9979C557.659 75.9977 557.5 75.9586 557.357 75.884C557.214 75.8094 557.092 75.7016 557 75.5696C556.849 75.3529 556.79 75.0854 556.837 74.8258C556.884 74.5663 557.033 74.3359 557.25 74.1851L567.264 67.2125C567.371 67.1297 567.495 67.0695 567.626 67.0356C567.758 67.0016 567.895 66.9947 568.029 67.0151C568.163 67.0356 568.292 67.083 568.407 67.1545C568.523 67.2261 568.622 67.3202 568.7 67.4312C568.777 67.5422 568.831 67.6677 568.859 67.8001C568.886 67.9326 568.886 68.0691 568.858 68.2014C568.831 68.3338 568.776 68.4592 568.698 68.5701C568.621 68.6809 568.521 68.7748 568.406 68.8461L558.392 75.8186C558.224 75.9349 558.025 75.9975 557.821 75.9979Z" fill="#4A6270"/>
<path d="M91.5441 35.1586H31.7211C29.1605 35.1586 27.0847 37.2234 27.0847 39.7705V223.787C27.0847 226.334 29.1605 228.399 31.7211 228.399H91.5441C94.1048 228.399 96.1805 226.334 96.1805 223.787V39.7705C96.1805 37.2234 94.1048 35.1586 91.5441 35.1586Z" fill="#698295"/>
<path d="M687.831 159.669H620.087C618.931 159.669 617.994 160.601 617.994 161.751V195.438C617.994 196.588 618.931 197.52 620.087 197.52H687.831C688.987 197.52 689.924 196.588 689.924 195.438V161.751C689.924 160.601 688.987 159.669 687.831 159.669Z" fill="#3E515B"/>
<path d="M633.195 211.375V213.925C633.195 215.653 632.505 217.31 631.277 218.532C630.049 219.754 628.383 220.44 626.646 220.44H626.566C624.829 220.44 623.164 219.754 621.935 218.532C620.707 217.31 620.017 215.653 620.017 213.925V211.375C620.017 210.343 620.43 209.352 621.164 208.622C621.898 207.891 622.894 207.481 623.933 207.481H629.28C630.318 207.481 631.314 207.891 632.049 208.622C632.783 209.352 633.195 210.343 633.195 211.375Z" fill="#E5870A"/>
<path d="M626.606 217.442C630.245 217.442 633.195 214.543 633.195 210.967C633.195 207.391 630.245 204.493 626.606 204.493C622.967 204.493 620.017 207.391 620.017 210.967C620.017 214.543 622.967 217.442 626.606 217.442Z" fill="#F7AE44"/>
<path d="M659.532 211.376V213.965C659.532 215.693 658.842 217.35 657.614 218.572C656.386 219.793 654.72 220.48 652.983 220.48H652.903C651.166 220.48 649.5 219.793 648.272 218.572C647.044 217.35 646.354 215.693 646.354 213.965V211.376C646.354 210.343 646.766 209.352 647.5 208.622C648.235 207.891 649.231 207.481 650.269 207.481H655.616C656.655 207.481 657.651 207.891 658.385 208.622C659.119 209.352 659.532 210.343 659.532 211.376Z" fill="#E5870A"/>
<path d="M652.943 217.442C656.582 217.442 659.532 214.543 659.532 210.967C659.532 207.391 656.582 204.493 652.943 204.493C649.304 204.493 646.354 207.391 646.354 210.967C646.354 214.543 649.304 217.442 652.943 217.442Z" fill="#F7AE44"/>
<path d="M685.878 211.366V213.916C685.878 215.643 685.188 217.3 683.96 218.522C682.732 219.744 681.066 220.43 679.329 220.43H679.249C677.512 220.43 675.847 219.744 674.618 218.522C673.39 217.3 672.7 215.643 672.7 213.916V211.366C672.7 210.333 673.113 209.342 673.847 208.612C674.581 207.881 675.577 207.471 676.616 207.471H681.963C683.001 207.471 683.997 207.881 684.732 208.612C685.466 209.342 685.878 210.333 685.878 211.366Z" fill="#E5870A"/>
<path d="M679.289 217.442C682.928 217.442 685.878 214.543 685.878 210.967C685.878 207.391 682.928 204.493 679.289 204.493C675.65 204.493 672.7 207.391 672.7 210.967C672.7 214.543 675.65 217.442 679.289 217.442Z" fill="#F7AE44"/>
<path d="M1417.51 66.0372C1426.09 66.0372 1433.03 59.1248 1433.03 50.5979C1433.03 42.071 1426.09 35.1586 1417.51 35.1586C1408.94 35.1586 1401.99 42.071 1401.99 50.5979C1401.99 59.1248 1408.94 66.0372 1417.51 66.0372Z" fill="#88A6B5"/>
<path d="M1417.51 63.0489C1424.43 63.0489 1430.03 57.4744 1430.03 50.5979C1430.03 43.7214 1424.43 38.1469 1417.51 38.1469C1410.6 38.1469 1405 43.7214 1405 50.5979C1405 57.4744 1410.6 63.0489 1417.51 63.0489Z" fill="#698295"/>
<path d="M1419.02 59.0049C1418.82 59.0056 1418.64 58.9489 1418.48 58.8422C1418.32 58.7355 1418.2 58.5838 1418.13 58.4072L1413.7 46.9224L1409.98 51.2155C1409.89 51.3144 1409.78 51.3937 1409.66 51.4485C1409.53 51.5032 1409.4 51.5324 1409.26 51.5342H1405V49.6616H1408.83L1413.3 44.5019C1413.4 44.3794 1413.54 44.2865 1413.69 44.2323C1413.84 44.1782 1414.01 44.1647 1414.17 44.1931C1414.33 44.2256 1414.48 44.296 1414.6 44.3984C1414.73 44.5008 1414.83 44.632 1414.89 44.7808L1418.9 55.17L1420.36 50.329C1420.42 50.1361 1420.53 49.9671 1420.7 49.8468C1420.86 49.7266 1421.06 49.6617 1421.26 49.6616H1430.03V51.5342H1422.02L1420.02 58.3375C1419.96 58.5255 1419.85 58.6916 1419.7 58.8117C1419.54 58.9318 1419.35 58.9994 1419.16 59.0049H1419.02Z" fill="#4A6270"/>
<path d="M1430.9 83.9666H1372.08C1370.9 83.9666 1369.95 84.9165 1369.95 86.0883V126.669C1369.95 127.84 1370.9 128.79 1372.08 128.79H1430.9C1432.08 128.79 1433.03 127.84 1433.03 126.669V86.0883C1433.03 84.9165 1432.08 83.9666 1430.9 83.9666Z" fill="#698295"/>
<path d="M1430.09 144.728H1372.89C1371.27 144.728 1369.95 146.039 1369.95 147.656V227.462C1369.95 229.08 1371.27 230.391 1372.89 230.391H1430.09C1431.72 230.391 1433.03 229.08 1433.03 227.462V147.656C1433.03 146.039 1431.72 144.728 1430.09 144.728Z" fill="#698295"/>
<path d="M1404.11 87.9509H1373.83C1373.35 87.9509 1372.95 88.3434 1372.95 88.8275V102.016C1372.95 102.5 1373.35 102.892 1373.83 102.892H1404.11C1404.6 102.892 1405 102.5 1405 102.016V88.8275C1405 88.3434 1404.6 87.9509 1404.11 87.9509Z" fill="#26C694"/>
<path d="M1429.59 106.877H1373.39C1373.05 106.877 1372.78 107.149 1372.78 107.484V110.253C1372.78 110.589 1373.05 110.861 1373.39 110.861H1429.59C1429.93 110.861 1430.2 110.589 1430.2 110.253V107.484C1430.2 107.149 1429.93 106.877 1429.59 106.877Z" fill="#ABCADD"/>
<path d="M1429.15 113.849H1373.83C1373.25 113.849 1372.78 114.317 1372.78 114.895V124.756C1372.78 125.334 1373.25 125.802 1373.83 125.802H1429.15C1429.73 125.802 1430.2 125.334 1430.2 124.756V114.895C1430.2 114.317 1429.73 113.849 1429.15 113.849Z" fill="#3E515B"/>
<path d="M1428.35 87.9509H1410.68C1410.31 87.9509 1410 88.2542 1410 88.6283V102.215C1410 102.589 1410.31 102.892 1410.68 102.892H1428.35C1428.72 102.892 1429.03 102.589 1429.03 102.215V88.6283C1429.03 88.2542 1428.72 87.9509 1428.35 87.9509Z" fill="#5EB5E5"/>
<path d="M1349.92 35.1586H1332.9C1332.34 35.1586 1331.89 35.6046 1331.89 36.1547V67.0333C1331.89 67.5834 1332.34 68.0293 1332.9 68.0293H1349.92C1350.47 68.0293 1350.92 67.5834 1350.92 67.0333V36.1547C1350.92 35.6046 1350.47 35.1586 1349.92 35.1586Z" fill="#698295"/>
<path d="M1347.16 38.1469H1335.66C1335.24 38.1469 1334.9 38.4858 1334.9 38.9039V65.2801C1334.9 65.6982 1335.24 66.0372 1335.66 66.0372H1347.16C1347.58 66.0372 1347.92 65.6982 1347.92 65.2801V38.9039C1347.92 38.4858 1347.58 38.1469 1347.16 38.1469Z" fill="#88A6B5"/>
<path d="M1344.57 42.1312H1338.24C1338.06 42.1312 1337.9 42.2828 1337.9 42.4699V51.7932C1337.9 51.9802 1338.06 52.1318 1338.24 52.1318H1344.57C1344.76 52.1318 1344.91 51.9802 1344.91 51.7932V42.4699C1344.91 42.2828 1344.76 42.1312 1344.57 42.1312Z" fill="#ABCADD"/>
<path d="M1424.03 194.532H1379.95C1379.4 194.532 1378.96 194.973 1378.96 195.518V206.784C1378.96 207.328 1379.4 207.77 1379.95 207.77H1424.03C1424.58 207.77 1425.02 207.328 1425.02 206.784V195.518C1425.02 194.973 1424.58 194.532 1424.03 194.532Z" fill="#5EB5E5"/>
<path d="M1423.97 210.409H1380.01C1379.43 210.409 1378.96 210.878 1378.96 211.455V224.364C1378.96 224.942 1379.43 225.41 1380.01 225.41H1423.97C1424.55 225.41 1425.02 224.942 1425.02 224.364V211.455C1425.02 210.878 1424.55 210.409 1423.97 210.409Z" fill="#ABCADD"/>
<path d="M740.684 201.006H729.449C729.233 201.006 729.058 201.18 729.058 201.395V208.586C729.058 208.801 729.233 208.975 729.449 208.975H740.684C740.9 208.975 741.075 208.801 741.075 208.586V201.395C741.075 201.18 740.9 201.006 740.684 201.006Z" fill="#ABCADD"/>
<path d="M740.444 186.563H729.449C729.233 186.563 729.058 186.737 729.058 186.952V194.143C729.058 194.358 729.233 194.532 729.449 194.532H740.444C740.66 194.532 740.835 194.358 740.835 194.143V186.952C740.835 186.737 740.66 186.563 740.444 186.563Z" fill="#26C694"/>
<path d="M525.095 201.504H385.261C383.779 201.504 382.578 202.699 382.578 204.174V229.713C382.578 231.188 383.779 232.383 385.261 232.383H525.095C526.578 232.383 527.779 231.188 527.779 229.713V204.174C527.779 202.699 526.578 201.504 525.095 201.504Z" fill="#698295"/>
<path d="M521.991 205.489H512.528C512.296 205.489 512.107 205.676 512.107 205.907V215.798C512.107 216.029 512.296 216.217 512.528 216.217H521.991C522.223 216.217 522.412 216.029 522.412 215.798V205.907C522.412 205.676 522.223 205.489 521.991 205.489Z" fill="#ABCADD"/>
<path d="M509.474 205.489H500.011C499.778 205.489 499.59 205.676 499.59 205.907V215.798C499.59 216.029 499.778 216.217 500.011 216.217H509.474C509.706 216.217 509.894 216.029 509.894 215.798V205.907C509.894 205.676 509.706 205.489 509.474 205.489Z" fill="#ABCADD"/>
<path d="M521.991 218.438H512.528C512.296 218.438 512.107 218.625 512.107 218.856V228.747C512.107 228.978 512.296 229.166 512.528 229.166H521.991C522.223 229.166 522.412 228.978 522.412 228.747V218.856C522.412 218.625 522.223 218.438 521.991 218.438Z" fill="#ABCADD"/>
<path d="M509.474 218.438H500.011C499.778 218.438 499.59 218.625 499.59 218.856V228.747C499.59 228.978 499.778 229.166 500.011 229.166H509.474C509.706 229.166 509.894 228.978 509.894 228.747V218.856C509.894 218.625 509.706 218.438 509.474 218.438Z" fill="#ABCADD"/>
<path d="M496.456 205.489H486.993C486.76 205.489 486.572 205.676 486.572 205.907V215.798C486.572 216.029 486.76 216.217 486.993 216.217H496.456C496.688 216.217 496.876 216.029 496.876 215.798V205.907C496.876 205.676 496.688 205.489 496.456 205.489Z" fill="#ABCADD"/>
<path d="M496.456 218.438H486.993C486.76 218.438 486.572 218.625 486.572 218.856V228.747C486.572 228.978 486.76 229.166 486.993 229.166H496.456C496.688 229.166 496.876 228.978 496.876 228.747V218.856C496.876 218.625 496.688 218.438 496.456 218.438Z" fill="#ABCADD"/>
<path d="M483.938 205.489H474.475C474.243 205.489 474.055 205.676 474.055 205.907V215.798C474.055 216.029 474.243 216.217 474.475 216.217H483.938C484.171 216.217 484.359 216.029 484.359 215.798V205.907C484.359 205.676 484.171 205.489 483.938 205.489Z" fill="#ABCADD"/>
<path d="M471.421 205.489H461.958C461.726 205.489 461.537 205.676 461.537 205.907V215.798C461.537 216.029 461.726 216.217 461.958 216.217H471.421C471.653 216.217 471.842 216.029 471.842 215.798V205.907C471.842 205.676 471.653 205.489 471.421 205.489Z" fill="#ABCADD"/>
<path d="M483.938 218.438H474.475C474.243 218.438 474.055 218.625 474.055 218.856V228.747C474.055 228.978 474.243 229.166 474.475 229.166H483.938C484.171 229.166 484.359 228.978 484.359 228.747V218.856C484.359 218.625 484.171 218.438 483.938 218.438Z" fill="#ABCADD"/>
<path d="M471.421 218.438H461.958C461.726 218.438 461.537 218.625 461.537 218.856V228.747C461.537 228.978 461.726 229.166 461.958 229.166H471.421C471.653 229.166 471.842 228.978 471.842 228.747V218.856C471.842 218.625 471.653 218.438 471.421 218.438Z" fill="#ABCADD"/>
<path d="M458.403 205.489H448.94C448.708 205.489 448.519 205.676 448.519 205.907V215.798C448.519 216.029 448.708 216.217 448.94 216.217H458.403C458.635 216.217 458.824 216.029 458.824 215.798V205.907C458.824 205.676 458.635 205.489 458.403 205.489Z" fill="#ABCADD"/>
<path d="M458.403 218.438H448.94C448.708 218.438 448.519 218.625 448.519 218.856V228.747C448.519 228.978 448.708 229.166 448.94 229.166H458.403C458.635 229.166 458.824 228.978 458.824 228.747V218.856C458.824 218.625 458.635 218.438 458.403 218.438Z" fill="#ABCADD"/>
<path d="M445.385 205.489H435.922C435.69 205.489 435.501 205.676 435.501 205.907V215.798C435.501 216.029 435.69 216.217 435.922 216.217H445.385C445.617 216.217 445.806 216.029 445.806 215.798V205.907C445.806 205.676 445.617 205.489 445.385 205.489Z" fill="#ABCADD"/>
<path d="M445.385 218.438H435.922C435.69 218.438 435.501 218.625 435.501 218.856V228.747C435.501 228.978 435.69 229.166 435.922 229.166H445.385C445.617 229.166 445.806 228.978 445.806 228.747V218.856C445.806 218.625 445.617 218.438 445.385 218.438Z" fill="#ABCADD"/>
<path d="M432.367 205.489H422.904C422.671 205.489 422.483 205.676 422.483 205.907V215.798C422.483 216.029 422.671 216.217 422.904 216.217H432.367C432.599 216.217 432.787 216.029 432.787 215.798V205.907C432.787 205.676 432.599 205.489 432.367 205.489Z" fill="#ABCADD"/>
<path d="M432.367 218.438H422.904C422.671 218.438 422.483 218.625 422.483 218.856V228.747C422.483 228.978 422.671 229.166 422.904 229.166H432.367C432.599 229.166 432.787 228.978 432.787 228.747V218.856C432.787 218.625 432.599 218.438 432.367 218.438Z" fill="#ABCADD"/>
<path d="M740.444 215.449H729.449C729.233 215.449 729.058 215.623 729.058 215.838V223.03C729.058 223.244 729.233 223.418 729.449 223.418H740.444C740.66 223.418 740.835 223.244 740.835 223.03V215.838C740.835 215.623 740.66 215.449 740.444 215.449Z" fill="#EF4B9D"/>
<path d="M301.465 34.1625H267.418V51.0959H301.465V34.1625Z" fill="#88A6B5"/>
<path d="M366.556 34.1625H332.508V51.0959H366.556V34.1625Z" fill="#88A6B5"/>
<path d="M185.304 49.1037C188.623 49.1037 191.313 46.428 191.313 43.1273C191.313 39.8265 188.623 37.1508 185.304 37.1508C181.986 37.1508 179.296 39.8265 179.296 43.1273C179.296 46.428 181.986 49.1037 185.304 49.1037Z" fill="#EF4B9D"/>
<path d="M197.321 221.426C200.639 221.426 203.329 218.75 203.329 215.45C203.329 212.149 200.639 209.473 197.321 209.473C194.003 209.473 191.312 212.149 191.312 215.45C191.312 218.75 194.003 221.426 197.321 221.426Z" fill="#F7AE44"/>
<path d="M226.361 221.426C229.679 221.426 232.369 218.75 232.369 215.45C232.369 212.149 229.679 209.473 226.361 209.473C223.043 209.473 220.353 212.149 220.353 215.45C220.353 218.75 223.043 221.426 226.361 221.426Z" fill="#EF4B9D"/>
<path d="M255.401 221.426C258.72 221.426 261.41 218.75 261.41 215.45C261.41 212.149 258.72 209.473 255.401 209.473C252.083 209.473 249.393 212.149 249.393 215.45C249.393 218.75 252.083 221.426 255.401 221.426Z" fill="#5EB5E5"/>
<path d="M284.442 221.426C287.76 221.426 290.45 218.75 290.45 215.45C290.45 212.149 287.76 209.473 284.442 209.473C281.123 209.473 278.433 212.149 278.433 215.45C278.433 218.75 281.123 221.426 284.442 221.426Z" fill="#26C694"/>
<path d="M211.34 49.1037C214.659 49.1037 217.349 46.428 217.349 43.1273C217.349 39.8265 214.659 37.1508 211.34 37.1508C208.022 37.1508 205.332 39.8265 205.332 43.1273C205.332 46.428 208.022 49.1037 211.34 49.1037Z" fill="#26C694"/>
<path d="M428.642 49.1037C431.96 49.1037 434.65 46.428 434.65 43.1273C434.65 39.8265 431.96 37.1508 428.642 37.1508C425.323 37.1508 422.633 39.8265 422.633 43.1273C422.633 46.428 425.323 49.1037 428.642 49.1037Z" fill="#5EB5E5"/>
<path d="M454.678 49.1037C457.996 49.1037 460.686 46.428 460.686 43.1273C460.686 39.8265 457.996 37.1508 454.678 37.1508C451.359 37.1508 448.669 39.8265 448.669 43.1273C448.669 46.428 451.359 49.1037 454.678 49.1037Z" fill="#EF4B9D"/>
<path d="M131.64 71.0175H121.806L116.899 79.4842L121.806 87.9509H131.64L136.547 79.4842L131.64 71.0175Z" fill="#80A0B6"/>
<path d="M129.096 75.8088H124.81L122.677 79.4843L124.81 83.1698H129.096L131.229 79.4843L129.096 75.8088Z" fill="#698295"/>
<path d="M131.64 121.818H121.806L116.899 130.284L121.806 138.751H131.64L136.547 130.284L131.64 121.818Z" fill="#80A0B6"/>
<path d="M129.096 126.609H124.81L122.677 130.285L124.81 133.97H129.096L131.229 130.285L129.096 126.609Z" fill="#698295"/>
<path d="M508.162 121.818H498.328L493.422 130.284L498.328 138.751H508.162L513.079 130.284L508.162 121.818Z" fill="#80A0B6"/>
<path d="M505.618 126.609H501.343L499.2 130.285L501.343 133.97H505.618L507.751 130.285L505.618 126.609Z" fill="#698295"/>
<path d="M131.64 161.661H121.806L116.899 170.128L121.806 178.594H131.64L136.547 170.128L131.64 161.661Z" fill="#80A0B6"/>
<path d="M129.096 166.452H124.81L122.677 170.128L124.81 173.813H129.096L131.229 170.128L129.096 166.452Z" fill="#698295"/>
<path d="M508.162 161.661H498.328L493.422 170.128L498.328 178.594H508.162L513.079 170.128L508.162 161.661Z" fill="#80A0B6"/>
<path d="M505.618 166.452H501.343L499.2 170.128L501.343 173.813H505.618L507.751 170.128L505.618 166.452Z" fill="#698295"/>
<path d="M508.162 71.0175H498.328L493.422 79.4842L498.328 87.9509H508.162L513.079 79.4842L508.162 71.0175Z" fill="#80A0B6"/>
<path d="M505.618 75.8088H501.343L499.2 79.4843L501.343 83.1698H505.618L507.751 79.4843L505.618 75.8088Z" fill="#698295"/>
<path d="M800.568 71.0175H790.734L785.817 79.4842L790.734 87.9509H800.568L805.484 79.4842L800.568 71.0175Z" fill="#80A0B6"/>
<path d="M798.024 75.8088H793.748L791.605 79.4843L793.748 83.1698H798.024L800.157 79.4843L798.024 75.8088Z" fill="#698295"/>
<path d="M1180.09 71.0175H1170.26L1165.34 79.4842L1170.26 87.9509H1180.09L1185.01 79.4842L1180.09 71.0175Z" fill="#80A0B6"/>
<path d="M1177.55 75.8088H1173.27L1171.13 79.4843L1173.27 83.1698H1177.55L1179.68 79.4843L1177.55 75.8088Z" fill="#698295"/>
<path d="M12.875 230.182C12.2531 230.177 11.6439 230.005 11.1126 229.683C5.10426 226.137 2.77102 196.534 4.10287 141.69C4.46337 126.469 3.72234 112.106 3.10148 99.4258C1.89981 76.0677 0.958508 57.5904 7.41747 47.0717C16.43 32.3098 34.8255 27.9868 48.3142 31.3535C57.8474 33.7342 63.7856 39.5812 64.2062 47.002L60.2007 47.2211C59.8902 41.6331 55.0836 37.1507 47.3428 35.2183C35.3262 32.2301 18.8633 36.0252 10.8422 49.1635C4.95405 58.6462 5.86531 76.5558 7.05697 99.2166C7.70787 111.966 8.4489 126.42 8.05836 141.789C6.38604 213.069 11.6834 224.354 12.9251 226.008C15.1983 223.697 19.0736 208.915 19.0736 189.551C19.0736 182.579 25.082 182.579 27.0847 182.579V186.563C24.1306 186.563 23.0792 187.011 23.0792 189.551C23.0792 206.564 19.8347 226.755 14.6074 229.713C14.0794 230.013 13.4831 230.175 12.875 230.182Z" fill="#32444C"/>
<path d="M20.0751 50.0998C18.0723 55.0802 16.6103 60.0606 13.566 60.0606C10.5218 60.0606 9.05978 56.0763 7.05701 50.0998C7.05701 48.1076 10.5218 45.1194 13.566 45.1194C16.6103 45.1194 20.0751 50.0998 20.0751 50.0998Z" fill="#698295"/>
<path d="M13.566 57.0724C17.1609 57.0724 20.0751 54.1736 20.0751 50.5978C20.0751 47.022 17.1609 44.1233 13.566 44.1233C9.9712 44.1233 7.05701 47.022 7.05701 50.5978C7.05701 54.1736 9.9712 57.0724 13.566 57.0724Z" fill="#80A0B6"/>
<path d="M62.1333 100.9C77.0657 100.9 89.1708 88.859 89.1708 74.0057C89.1708 59.1525 77.0657 47.1115 62.1333 47.1115C47.2009 47.1115 35.0958 59.1525 35.0958 74.0057C35.0958 88.859 47.2009 100.9 62.1333 100.9Z" fill="#32444C"/>
<path d="M62.1333 214.453C77.0657 214.453 89.1708 202.412 89.1708 187.559C89.1708 172.706 77.0657 160.665 62.1333 160.665C47.2009 160.665 35.0958 172.706 35.0958 187.559C35.0958 202.412 47.2009 214.453 62.1333 214.453Z" fill="#32444C"/>
<path d="M62.1334 101.896C75.9597 101.896 87.1681 90.7471 87.1681 76.9941C87.1681 63.2411 75.9597 52.092 62.1334 52.092C48.3071 52.092 37.0986 63.2411 37.0986 76.9941C37.0986 90.7471 48.3071 101.896 62.1334 101.896Z" fill="#3D5056"/>
<path d="M62.1334 208.477C75.9597 208.477 87.1681 197.328 87.1681 183.575C87.1681 169.822 75.9597 158.673 62.1334 158.673C48.3071 158.673 37.0986 169.822 37.0986 183.575C37.0986 197.328 48.3071 208.477 62.1334 208.477Z" fill="#3D5056"/>
<path d="M77.1541 79.9823C77.1541 72.2806 70.8774 66.0372 63.1347 66.0372C55.392 66.0372 49.1152 72.2806 49.1152 79.9823V183.575C49.1152 191.277 55.392 197.52 63.1347 197.52C70.8774 197.52 77.1541 191.277 77.1541 183.575V79.9823Z" fill="#32444C"/>
<path d="M69.143 94.4256C69.143 92.5001 67.5738 90.9393 65.6382 90.9393C63.7025 90.9393 62.1333 92.5001 62.1333 94.4256V174.112C62.1333 176.038 63.7025 177.598 65.6382 177.598C67.5738 177.598 69.143 176.038 69.143 174.112V94.4256Z" fill="#566D72"/>
<path d="M630.021 124.308C629.091 124.308 628.2 123.941 627.543 123.287C626.885 122.633 626.516 121.746 626.516 120.822V35.6666C626.516 34.5121 626.055 33.4049 625.234 32.5886C624.414 31.7723 623.301 31.3137 622.14 31.3137H601.341C600.412 31.3137 599.52 30.9464 598.863 30.2926C598.206 29.6388 597.836 28.752 597.836 27.8274C597.836 26.9028 598.206 26.016 598.863 25.3622C599.52 24.7084 600.412 24.3411 601.341 24.3411H622.14C625.159 24.3438 628.053 25.5378 630.188 27.6612C632.323 29.7846 633.523 32.6637 633.526 35.6666V120.822C633.526 121.746 633.157 122.633 632.499 123.287C631.842 123.941 630.951 124.308 630.021 124.308Z" fill="#678092"/>
<path d="M1375.45 50.0998C1378.5 50.0998 1380.96 47.6471 1380.96 44.6214C1380.96 41.5957 1378.5 39.1429 1375.45 39.1429C1372.41 39.1429 1369.95 41.5957 1369.95 44.6214C1369.95 47.6471 1372.41 50.0998 1375.45 50.0998Z" fill="#26C694"/>
<path d="M1375.45 65.0411C1378.5 65.0411 1380.96 62.5883 1380.96 59.5626C1380.96 56.537 1378.5 54.0842 1375.45 54.0842C1372.41 54.0842 1369.95 56.537 1369.95 59.5626C1369.95 62.5883 1372.41 65.0411 1375.45 65.0411Z" fill="#EF4B9D"/>
<path d="M734.566 50.0998C737.608 50.0998 740.074 47.6471 740.074 44.6214C740.074 41.5957 737.608 39.1429 734.566 39.1429C731.524 39.1429 729.058 41.5957 729.058 44.6214C729.058 47.6471 731.524 50.0998 734.566 50.0998Z" fill="#5EB5E5"/>
<path d="M734.566 65.0411C737.608 65.0411 740.074 62.5883 740.074 59.5626C740.074 56.537 737.608 54.0842 734.566 54.0842C731.524 54.0842 729.058 56.537 729.058 59.5626C729.058 62.5883 731.524 65.0411 734.566 65.0411Z" fill="#EF4B9D"/>
<path d="M1407.29 151.7L1399.06 150.903C1397.96 153.41 1396.09 155.507 1393.72 156.894C1391.35 158.281 1388.61 158.886 1385.87 158.623L1382.56 166.163C1384.62 167.976 1386.05 170.39 1386.64 173.06C1387.24 175.73 1386.97 178.518 1385.87 181.025L1392.06 186.483C1394.43 185.097 1397.18 184.491 1399.91 184.754C1402.65 185.017 1405.23 186.135 1407.29 187.948L1414.42 183.774C1413.83 181.106 1414.1 178.32 1415.2 175.815C1416.29 173.31 1418.16 171.215 1420.53 169.829L1418.74 161.8C1416.01 161.536 1413.42 160.417 1411.37 158.602C1409.31 156.788 1407.88 154.372 1407.29 151.7Z" fill="#88A6B5"/>
<path d="M1405.56 157.497L1399.88 156.95C1399.12 158.678 1397.83 160.123 1396.19 161.08C1394.56 162.036 1392.66 162.456 1390.78 162.279L1388.49 167.478C1389.91 168.732 1390.89 170.398 1391.3 172.24C1391.71 174.082 1391.53 176.006 1390.78 177.738L1395.05 181.503C1396.69 180.55 1398.58 180.133 1400.47 180.312C1402.35 180.491 1404.13 181.256 1405.56 182.499L1410.48 179.62C1410.08 177.778 1410.27 175.855 1411.02 174.126C1411.78 172.396 1413.07 170.949 1414.7 169.988L1413.47 164.44C1411.58 164.256 1409.8 163.487 1408.38 162.241C1406.96 160.994 1405.97 159.335 1405.56 157.497Z" fill="#ABCADD"/>
<path d="M704.024 0.295715C700.571 0.295715 697.26 1.65999 694.818 4.08842C692.377 6.51684 691.006 9.81048 691.006 13.2448V112.853H615.901V13.2448C615.901 9.81048 614.53 6.51684 612.089 4.08842C609.647 1.65999 606.336 0.295715 602.883 0.295715H0.0472412V26.1939H589.865V125.802C589.865 129.236 591.237 132.53 593.678 134.958C596.12 137.387 599.431 138.751 602.883 138.751H704.024C707.476 138.751 710.787 137.387 713.229 134.958C715.67 132.53 717.042 129.236 717.042 125.802V26.1939H1442.05V0.295715H704.024Z" fill="#678092"/>
<path d="M67.6409 19.2213C70.6827 19.2213 73.1486 16.7685 73.1486 13.7429C73.1486 10.7172 70.6827 8.2644 67.6409 8.2644C64.5992 8.2644 62.1333 10.7172 62.1333 13.7429C62.1333 16.7685 64.5992 19.2213 67.6409 19.2213Z" fill="#80A0B6"/>
<path d="M120.715 19.2213C123.756 19.2213 126.222 16.7685 126.222 13.7429C126.222 10.7172 123.756 8.2644 120.715 8.2644C117.673 8.2644 115.207 10.7172 115.207 13.7429C115.207 16.7685 117.673 19.2213 120.715 19.2213Z" fill="#80A0B6"/>
<path d="M173.788 19.2213C176.83 19.2213 179.296 16.7685 179.296 13.7429C179.296 10.7172 176.83 8.2644 173.788 8.2644C170.746 8.2644 168.281 10.7172 168.281 13.7429C168.281 16.7685 170.746 19.2213 173.788 19.2213Z" fill="#80A0B6"/>
<path d="M226.862 19.2213C229.904 19.2213 232.37 16.7685 232.37 13.7429C232.37 10.7172 229.904 8.2644 226.862 8.2644C223.82 8.2644 221.354 10.7172 221.354 13.7429C221.354 16.7685 223.82 19.2213 226.862 19.2213Z" fill="#80A0B6"/>
<path d="M279.935 19.2213C282.977 19.2213 285.443 16.7685 285.443 13.7429C285.443 10.7172 282.977 8.2644 279.935 8.2644C276.894 8.2644 274.428 10.7172 274.428 13.7429C274.428 16.7685 276.894 19.2213 279.935 19.2213Z" fill="#80A0B6"/>
<path d="M333.009 19.2213C336.051 19.2213 338.517 16.7685 338.517 13.7429C338.517 10.7172 336.051 8.2644 333.009 8.2644C329.967 8.2644 327.501 10.7172 327.501 13.7429C327.501 16.7685 329.967 19.2213 333.009 19.2213Z" fill="#80A0B6"/>
<path d="M386.083 19.2213C389.124 19.2213 391.59 16.7685 391.59 13.7429C391.59 10.7172 389.124 8.2644 386.083 8.2644C383.041 8.2644 380.575 10.7172 380.575 13.7429C380.575 16.7685 383.041 19.2213 386.083 19.2213Z" fill="#80A0B6"/>
<path d="M439.156 19.2213C442.198 19.2213 444.664 16.7685 444.664 13.7429C444.664 10.7172 442.198 8.2644 439.156 8.2644C436.114 8.2644 433.649 10.7172 433.649 13.7429C433.649 16.7685 436.114 19.2213 439.156 19.2213Z" fill="#80A0B6"/>
<path d="M492.23 19.2213C495.272 19.2213 497.738 16.7685 497.738 13.7429C497.738 10.7172 495.272 8.2644 492.23 8.2644C489.188 8.2644 486.722 10.7172 486.722 13.7429C486.722 16.7685 489.188 19.2213 492.23 19.2213Z" fill="#80A0B6"/>
<path d="M545.303 19.2213C548.345 19.2213 550.811 16.7685 550.811 13.7429C550.811 10.7172 548.345 8.2644 545.303 8.2644C542.262 8.2644 539.796 10.7172 539.796 13.7429C539.796 16.7685 542.262 19.2213 545.303 19.2213Z" fill="#80A0B6"/>
<path d="M601.381 53.0881C604.423 53.0881 606.889 50.6353 606.889 47.6096C606.889 44.584 604.423 42.1312 601.381 42.1312C598.34 42.1312 595.874 44.584 595.874 47.6096C595.874 50.6353 598.34 53.0881 601.381 53.0881Z" fill="#80A0B6"/>
<path d="M601.381 94.9235C604.423 94.9235 606.889 92.4707 606.889 89.4451C606.889 86.4194 604.423 83.9666 601.381 83.9666C598.34 83.9666 595.874 86.4194 595.874 89.4451C595.874 92.4707 598.34 94.9235 601.381 94.9235Z" fill="#80A0B6"/>
<path d="M703.523 53.0881C706.565 53.0881 709.031 50.6353 709.031 47.6096C709.031 44.584 706.565 42.1312 703.523 42.1312C700.481 42.1312 698.015 44.584 698.015 47.6096C698.015 50.6353 700.481 53.0881 703.523 53.0881Z" fill="#80A0B6"/>
<path d="M703.523 94.9235C706.565 94.9235 709.031 92.4707 709.031 89.4451C709.031 86.4194 706.565 83.9666 703.523 83.9666C700.481 83.9666 698.015 86.4194 698.015 89.4451C698.015 92.4707 700.481 94.9235 703.523 94.9235Z" fill="#80A0B6"/>
<path d="M14.0667 21.2134C18.4911 21.2134 22.0778 17.6457 22.0778 13.2447C22.0778 8.84375 18.4911 5.27606 14.0667 5.27606C9.64224 5.27606 6.05554 8.84375 6.05554 13.2447C6.05554 17.6457 9.64224 21.2134 14.0667 21.2134Z" fill="#80A0B6"/>
<path d="M17.6016 17.2291C17.5352 17.2308 17.4692 17.2194 17.4073 17.1955C17.3454 17.1715 17.2889 17.1355 17.2411 17.0897L10.1813 10.0275C10.1344 9.98118 10.0971 9.92609 10.0717 9.8654C10.0463 9.8047 10.0332 9.73957 10.0332 9.67383C10.0332 9.60808 10.0463 9.54301 10.0717 9.48232C10.0971 9.42163 10.1344 9.36654 10.1813 9.32024C10.2766 9.22835 10.4041 9.17694 10.5368 9.17694C10.6695 9.17694 10.797 9.22835 10.8923 9.32024L17.902 16.3825C17.9489 16.4288 17.9862 16.4838 18.0116 16.5445C18.037 16.6052 18.0501 16.6703 18.0501 16.7361C18.0501 16.8018 18.037 16.8669 18.0116 16.9276C17.9862 16.9883 17.9489 17.0434 17.902 17.0897C17.8212 17.1694 17.715 17.2187 17.6016 17.2291Z" fill="#678092"/>
<path d="M10.5217 17.2292C10.3864 17.2289 10.2568 17.1752 10.1612 17.0798C10.0689 16.985 10.0172 16.8582 10.0172 16.7262C10.0172 16.5942 10.0689 16.4674 10.1612 16.3726L17.2611 9.40006C17.3076 9.35337 17.363 9.31633 17.424 9.29105C17.485 9.26576 17.5505 9.25275 17.6166 9.25275C17.6827 9.25275 17.7481 9.26576 17.8091 9.29105C17.8702 9.31633 17.9255 9.35337 17.9721 9.40006C18.0645 9.49483 18.1161 9.62164 18.1161 9.75365C18.1161 9.88565 18.0645 10.0125 17.9721 10.1072L10.8722 17.0798C10.7798 17.1736 10.6538 17.2274 10.5217 17.2292Z" fill="#678092"/>
<path d="M600.881 23.2056C605.305 23.2056 608.892 19.6379 608.892 15.237C608.892 10.836 605.305 7.26831 600.881 7.26831C596.456 7.26831 592.869 10.836 592.869 15.237C592.869 19.6379 596.456 23.2056 600.881 23.2056Z" fill="#80A0B6"/>
<path d="M604.416 19.2213C604.349 19.223 604.283 19.2115 604.221 19.1876C604.159 19.1636 604.103 19.1277 604.055 19.0818L597.045 12.0196C596.998 11.9733 596.961 11.9182 596.936 11.8575C596.91 11.7968 596.897 11.7317 596.897 11.666C596.897 11.6002 596.91 11.5351 596.936 11.4744C596.961 11.4138 596.998 11.3587 597.045 11.3124C597.141 11.2205 597.268 11.1691 597.401 11.1691C597.533 11.1691 597.661 11.2205 597.756 11.3124L604.766 18.3746C604.813 18.4209 604.85 18.4759 604.876 18.5366C604.901 18.5973 604.914 18.6625 604.914 18.7282C604.914 18.794 604.901 18.859 604.876 18.9197C604.85 18.9804 604.813 19.0355 604.766 19.0818C604.72 19.1269 604.665 19.1625 604.605 19.1864C604.545 19.2104 604.48 19.2222 604.416 19.2213Z" fill="#678092"/>
<path d="M597.336 19.2214C597.2 19.221 597.071 19.1673 596.975 19.0719C596.883 18.9772 596.831 18.8504 596.831 18.7183C596.831 18.5863 596.883 18.4595 596.975 18.3648L604.075 11.3922C604.122 11.3455 604.177 11.3085 604.238 11.2832C604.299 11.2579 604.364 11.2449 604.43 11.2449C604.497 11.2449 604.562 11.2579 604.623 11.2832C604.684 11.3085 604.739 11.3455 604.786 11.3922C604.878 11.487 604.93 11.6138 604.93 11.7458C604.93 11.8778 604.878 12.0046 604.786 12.0994L597.686 19.0719C597.594 19.1658 597.468 19.2195 597.336 19.2214Z" fill="#678092"/>
<path d="M928.215 19.2213C931.256 19.2213 933.722 16.7685 933.722 13.7429C933.722 10.7172 931.256 8.2644 928.215 8.2644C925.173 8.2644 922.707 10.7172 922.707 13.7429C922.707 16.7685 925.173 19.2213 928.215 19.2213Z" fill="#80A0B6"/>
<path d="M983.141 19.2213C986.183 19.2213 988.648 16.7685 988.648 13.7429C988.648 10.7172 986.183 8.2644 983.141 8.2644C980.099 8.2644 977.633 10.7172 977.633 13.7429C977.633 16.7685 980.099 19.2213 983.141 19.2213Z" fill="#80A0B6"/>
<path d="M1038.07 19.2213C1041.11 19.2213 1043.57 16.7685 1043.57 13.7429C1043.57 10.7172 1041.11 8.2644 1038.07 8.2644C1035.03 8.2644 1032.56 10.7172 1032.56 13.7429C1032.56 16.7685 1035.03 19.2213 1038.07 19.2213Z" fill="#80A0B6"/>
<path d="M1092.98 19.2213C1096.02 19.2213 1098.49 16.7685 1098.49 13.7429C1098.49 10.7172 1096.02 8.2644 1092.98 8.2644C1089.94 8.2644 1087.48 10.7172 1087.48 13.7429C1087.48 16.7685 1089.94 19.2213 1092.98 19.2213Z" fill="#80A0B6"/>
<path d="M763.456 19.2213C766.498 19.2213 768.964 16.7685 768.964 13.7429C768.964 10.7172 766.498 8.2644 763.456 8.2644C760.414 8.2644 757.948 10.7172 757.948 13.7429C757.948 16.7685 760.414 19.2213 763.456 19.2213Z" fill="#80A0B6"/>
<path d="M818.372 19.2213C821.414 19.2213 823.88 16.7685 823.88 13.7429C823.88 10.7172 821.414 8.2644 818.372 8.2644C815.33 8.2644 812.865 10.7172 812.865 13.7429C812.865 16.7685 815.33 19.2213 818.372 19.2213Z" fill="#80A0B6"/>
<path d="M873.298 19.2213C876.34 19.2213 878.806 16.7685 878.806 13.7429C878.806 10.7172 876.34 8.2644 873.298 8.2644C870.257 8.2644 867.791 10.7172 867.791 13.7429C867.791 16.7685 870.257 19.2213 873.298 19.2213Z" fill="#80A0B6"/>
<path d="M1147.91 19.2213C1150.95 19.2213 1153.42 16.7685 1153.42 13.7429C1153.42 10.7172 1150.95 8.2644 1147.91 8.2644C1144.87 8.2644 1142.4 10.7172 1142.4 13.7429C1142.4 16.7685 1144.87 19.2213 1147.91 19.2213Z" fill="#80A0B6"/>
<path d="M1202.84 19.2213C1205.88 19.2213 1208.34 16.7685 1208.34 13.7429C1208.34 10.7172 1205.88 8.2644 1202.84 8.2644C1199.79 8.2644 1197.33 10.7172 1197.33 13.7429C1197.33 16.7685 1199.79 19.2213 1202.84 19.2213Z" fill="#80A0B6"/>
<path d="M1257.75 19.2213C1260.79 19.2213 1263.26 16.7685 1263.26 13.7429C1263.26 10.7172 1260.79 8.2644 1257.75 8.2644C1254.71 8.2644 1252.24 10.7172 1252.24 13.7429C1252.24 16.7685 1254.71 19.2213 1257.75 19.2213Z" fill="#80A0B6"/>
<path d="M1312.68 19.2213C1315.72 19.2213 1318.19 16.7685 1318.19 13.7429C1318.19 10.7172 1315.72 8.2644 1312.68 8.2644C1309.64 8.2644 1307.17 10.7172 1307.17 13.7429C1307.17 16.7685 1309.64 19.2213 1312.68 19.2213Z" fill="#80A0B6"/>
<path d="M1367.59 19.2213C1370.64 19.2213 1373.1 16.7685 1373.1 13.7429C1373.1 10.7172 1370.64 8.2644 1367.59 8.2644C1364.55 8.2644 1362.09 10.7172 1362.09 13.7429C1362.09 16.7685 1364.55 19.2213 1367.59 19.2213Z" fill="#80A0B6"/>
<path d="M1427.03 21.2134C1431.45 21.2134 1435.04 17.6457 1435.04 13.2447C1435.04 8.84375 1431.45 5.27606 1427.03 5.27606C1422.6 5.27606 1419.02 8.84375 1419.02 13.2447C1419.02 17.6457 1422.6 21.2134 1427.03 21.2134Z" fill="#80A0B6"/>
<path d="M1430.56 17.2291C1430.5 17.2308 1430.43 17.2194 1430.37 17.1955C1430.31 17.1715 1430.25 17.1355 1430.2 17.0897L1423.14 10.0275C1423.09 9.98118 1423.06 9.92609 1423.03 9.8654C1423.01 9.8047 1422.99 9.73957 1422.99 9.67383C1422.99 9.60808 1423.01 9.54301 1423.03 9.48232C1423.06 9.42163 1423.09 9.36654 1423.14 9.32024C1423.24 9.22835 1423.36 9.17694 1423.5 9.17694C1423.63 9.17694 1423.76 9.22835 1423.85 9.32024L1430.91 16.3825C1430.98 16.4521 1431.03 16.5402 1431.05 16.6359C1431.06 16.7316 1431.05 16.8306 1431.02 16.9208C1430.98 17.0109 1430.92 17.0882 1430.84 17.143C1430.75 17.1978 1430.66 17.2278 1430.56 17.2291Z" fill="#678092"/>
<path d="M1423.48 17.2292C1423.35 17.2289 1423.22 17.1752 1423.12 17.0798C1423.03 16.985 1422.98 16.8582 1422.98 16.7262C1422.98 16.5942 1423.03 16.4674 1423.12 16.3726L1430.22 9.40006C1430.27 9.35337 1430.32 9.31633 1430.38 9.29105C1430.44 9.26576 1430.51 9.25275 1430.58 9.25275C1430.64 9.25275 1430.71 9.26576 1430.77 9.29105C1430.83 9.31633 1430.89 9.35337 1430.93 9.40006C1431.02 9.49483 1431.08 9.62164 1431.08 9.75365C1431.08 9.88565 1431.02 10.0125 1430.93 10.1072L1423.83 17.0798C1423.74 17.1736 1423.61 17.2274 1423.48 17.2292Z" fill="#678092"/>
<path d="M706.026 23.2056C710.451 23.2056 714.038 19.6379 714.038 15.237C714.038 10.836 710.451 7.26831 706.026 7.26831C701.602 7.26831 698.015 10.836 698.015 15.237C698.015 19.6379 701.602 23.2056 706.026 23.2056Z" fill="#80A0B6"/>
<path d="M709.561 19.2213C709.495 19.223 709.429 19.2115 709.367 19.1876C709.305 19.1636 709.249 19.1277 709.201 19.0818L702.191 12.0196C702.144 11.9733 702.107 11.9182 702.081 11.8575C702.056 11.7968 702.043 11.7317 702.043 11.666C702.043 11.6002 702.056 11.5351 702.081 11.4744C702.107 11.4138 702.144 11.3587 702.191 11.3124C702.286 11.2205 702.414 11.1691 702.547 11.1691C702.679 11.1691 702.807 11.2205 702.902 11.3124L709.912 18.3746C709.959 18.4209 709.996 18.4759 710.021 18.5366C710.047 18.5973 710.06 18.6625 710.06 18.7282C710.06 18.794 710.047 18.859 710.021 18.9197C709.996 18.9804 709.959 19.0355 709.912 19.0818C709.866 19.1269 709.811 19.1625 709.751 19.1864C709.69 19.2104 709.626 19.2222 709.561 19.2213Z" fill="#678092"/>
<path d="M702.482 19.2214C702.346 19.221 702.217 19.1673 702.121 19.0719C702.029 18.9772 701.977 18.8504 701.977 18.7183C701.977 18.5863 702.029 18.4595 702.121 18.3648L709.221 11.3922C709.267 11.3455 709.323 11.3085 709.384 11.2832C709.445 11.2579 709.51 11.2449 709.576 11.2449C709.642 11.2449 709.708 11.2579 709.769 11.2832C709.83 11.3085 709.885 11.3455 709.932 11.3922C710.024 11.487 710.076 11.6138 710.076 11.7458C710.076 11.8778 710.024 12.0046 709.932 12.0994L702.832 19.0719C702.74 19.1658 702.614 19.2195 702.482 19.2214Z" fill="#678092"/>
<path d="M604.886 130.782C609.311 130.782 612.897 127.215 612.897 122.814C612.897 118.413 609.311 114.845 604.886 114.845C600.462 114.845 596.875 118.413 596.875 122.814C596.875 127.215 600.462 130.782 604.886 130.782Z" fill="#80A0B6"/>
<path d="M608.421 126.798C608.355 126.8 608.289 126.788 608.227 126.765C608.165 126.741 608.108 126.705 608.061 126.659L601.051 119.597C601.004 119.55 600.967 119.495 600.941 119.434C600.916 119.374 600.903 119.309 600.903 119.243C600.903 119.177 600.916 119.112 600.941 119.051C600.967 118.991 601.004 118.936 601.051 118.889C601.146 118.797 601.274 118.746 601.406 118.746C601.539 118.746 601.667 118.797 601.762 118.889L608.772 125.952C608.818 125.998 608.856 126.053 608.881 126.114C608.907 126.174 608.92 126.239 608.92 126.305C608.92 126.371 608.907 126.436 608.881 126.497C608.856 126.557 608.818 126.612 608.772 126.659C608.725 126.704 608.67 126.739 608.61 126.763C608.55 126.787 608.486 126.799 608.421 126.798Z" fill="#678092"/>
<path d="M601.341 126.798C601.206 126.798 601.076 126.744 600.981 126.649C600.888 126.554 600.837 126.427 600.837 126.295C600.837 126.163 600.888 126.036 600.981 125.942L608.081 118.969C608.127 118.922 608.182 118.885 608.243 118.86C608.305 118.835 608.37 118.822 608.436 118.822C608.502 118.822 608.568 118.835 608.629 118.86C608.69 118.885 608.745 118.922 608.792 118.969C608.884 119.064 608.936 119.191 608.936 119.323C608.936 119.455 608.884 119.581 608.792 119.676L601.692 126.649C601.599 126.743 601.473 126.796 601.341 126.798Z" fill="#678092"/>
<path d="M702.021 130.782C706.445 130.782 710.032 127.215 710.032 122.814C710.032 118.413 706.445 114.845 702.021 114.845C697.596 114.845 694.01 118.413 694.01 122.814C694.01 127.215 697.596 130.782 702.021 130.782Z" fill="#80A0B6"/>
<path d="M705.556 126.798C705.489 126.8 705.423 126.788 705.361 126.765C705.3 126.741 705.243 126.705 705.195 126.659L698.186 119.597C698.139 119.55 698.101 119.495 698.076 119.434C698.051 119.374 698.037 119.309 698.037 119.243C698.037 119.177 698.051 119.112 698.076 119.051C698.101 118.991 698.139 118.936 698.186 118.889C698.281 118.797 698.408 118.746 698.541 118.746C698.674 118.746 698.801 118.797 698.897 118.889L705.906 125.952C705.953 125.998 705.99 126.053 706.016 126.114C706.041 126.174 706.054 126.239 706.054 126.305C706.054 126.371 706.041 126.436 706.016 126.497C705.99 126.557 705.953 126.612 705.906 126.659C705.86 126.704 705.805 126.739 705.745 126.763C705.685 126.787 705.621 126.799 705.556 126.798Z" fill="#678092"/>
<path d="M698.476 126.798C698.341 126.798 698.211 126.744 698.115 126.649C698.023 126.554 697.971 126.427 697.971 126.295C697.971 126.163 698.023 126.036 698.115 125.942L705.215 118.969C705.262 118.922 705.317 118.885 705.378 118.86C705.439 118.835 705.505 118.822 705.571 118.822C705.637 118.822 705.702 118.835 705.763 118.86C705.824 118.885 705.88 118.922 705.926 118.969C706.019 119.064 706.07 119.191 706.07 119.323C706.07 119.455 706.019 119.581 705.926 119.676L698.826 126.649C698.734 126.743 698.608 126.796 698.476 126.798Z" fill="#678092"/>
<path d="M638.102 130.783C641.144 130.783 643.61 128.33 643.61 125.304C643.61 122.278 641.144 119.826 638.102 119.826C635.06 119.826 632.595 122.278 632.595 125.304C632.595 128.33 635.06 130.783 638.102 130.783Z" fill="#80A0B6"/>
<path d="M668.805 130.783C671.847 130.783 674.312 128.33 674.312 125.304C674.312 122.278 671.847 119.826 668.805 119.826C665.763 119.826 663.297 122.278 663.297 125.304C663.297 128.33 665.763 130.783 668.805 130.783Z" fill="#80A0B6"/>
<path d="M416.555 205.489H388.656C388.064 205.489 387.585 205.966 387.585 206.555V228.329C387.585 228.917 388.064 229.395 388.656 229.395H416.555C417.147 229.395 417.626 228.917 417.626 228.329V206.555C417.626 205.966 417.147 205.489 416.555 205.489Z" fill="#3E515B"/>
<path d="M371.342 201.504H343.744C343.069 201.504 342.522 202.048 342.522 202.719V231.168C342.522 231.839 343.069 232.383 343.744 232.383H371.342C372.017 232.383 372.564 231.839 372.564 231.168V202.719C372.564 202.048 372.017 201.504 371.342 201.504Z" fill="#5EB5E5"/>
<path d="M333.51 201.504H307.474C306.367 201.504 305.471 202.396 305.471 203.496V210.469C305.471 211.569 306.367 212.461 307.474 212.461H333.51C334.616 212.461 335.512 211.569 335.512 210.469V203.496C335.512 202.396 334.616 201.504 333.51 201.504Z" fill="#EF4B9D"/>
<path d="M333.51 218.438H307.474C306.367 218.438 305.471 219.33 305.471 220.43V230.391C305.471 231.491 306.367 232.383 307.474 232.383H333.51C334.616 232.383 335.512 231.491 335.512 230.391V220.43C335.512 219.33 334.616 218.438 333.51 218.438Z" fill="#ABCADD"/>
<path d="M737.069 85.9588C737.069 84.8585 736.173 83.9666 735.067 83.9666C733.961 83.9666 733.064 84.8585 733.064 85.9588V149.708C733.064 150.808 733.961 151.7 735.067 151.7C736.173 151.7 737.069 150.808 737.069 149.708V85.9588Z" fill="#3D5056"/>
<path d="M854.733 50.1397V37.111C854.733 36.3078 854.078 35.6567 853.271 35.6567L773.079 35.6567C772.272 35.6567 771.617 36.3078 771.617 37.111V50.1397C771.617 50.9429 772.272 51.594 773.079 51.594L853.271 51.594C854.078 51.594 854.733 50.9429 854.733 50.1397Z" fill="#698295"/>
<path d="M899.294 51.1358V37.111C899.294 36.5829 898.864 36.1547 898.333 36.1547H864.206C863.675 36.1547 863.244 36.5829 863.244 37.111V51.1358C863.244 51.6639 863.675 52.092 864.206 52.092H898.333C898.864 52.092 899.294 51.6639 899.294 51.1358Z" fill="#26C694"/>
<path d="M944.357 51.1358V37.111C944.357 36.5829 943.927 36.1547 943.396 36.1547H909.268C908.737 36.1547 908.307 36.5829 908.307 37.111V51.1358C908.307 51.6639 908.737 52.092 909.268 52.092H943.396C943.927 52.092 944.357 51.6639 944.357 51.1358Z" fill="#5EB5E5"/>
<path d="M1061.52 51.1358V37.1109C1061.52 36.5828 1061.09 36.1547 1060.56 36.1547H1026.43C1025.9 36.1547 1025.47 36.5828 1025.47 37.1109V51.1358C1025.47 51.664 1025.9 52.092 1026.43 52.092H1060.56C1061.09 52.092 1061.52 51.664 1061.52 51.1358Z" fill="#5EB5E5"/>
<path d="M1106.58 51.1358V37.1109C1106.58 36.5828 1106.15 36.1547 1105.62 36.1547H1071.49C1070.96 36.1547 1070.53 36.5828 1070.53 37.1109V51.1358C1070.53 51.664 1070.96 52.092 1071.49 52.092H1105.62C1106.15 52.092 1106.58 51.664 1106.58 51.1358Z" fill="#26C694"/>
<path d="M850.226 47.9882V38.9239C850.226 38.4013 849.8 37.9776 849.275 37.9776H841.164C840.638 37.9776 840.212 38.4013 840.212 38.9239V47.9882C840.212 48.5108 840.638 48.9345 841.164 48.9345H849.275C849.8 48.9345 850.226 48.5108 850.226 47.9882Z" fill="#ABCADD"/>
<path d="M1199.21 50.1398V37.1109C1199.21 36.3077 1198.56 35.6567 1197.75 35.6567L1117.56 35.6567C1116.75 35.6567 1116.1 36.3077 1116.1 37.1109V50.1398C1116.1 50.9429 1116.75 51.594 1117.56 51.594L1197.75 51.594C1198.56 51.594 1199.21 50.9429 1199.21 50.1398Z" fill="#698295"/>
<path d="M1194.7 48.0378V39.0731C1194.7 38.523 1194.26 38.077 1193.7 38.077H1185.69C1185.14 38.077 1184.69 38.523 1184.69 39.0731V48.0378C1184.69 48.588 1185.14 49.0339 1185.69 49.0339H1193.7C1194.26 49.0339 1194.7 48.588 1194.7 48.0378Z" fill="#ABCADD"/>
<path d="M1182.03 48.038V39.1429C1182.03 38.5928 1181.58 38.1469 1181.03 38.1469H1176.02C1175.47 38.1469 1175.02 38.5928 1175.02 39.1429V48.038C1175.02 48.5881 1175.47 49.0341 1176.02 49.0341H1181.03C1181.58 49.0341 1182.03 48.5881 1182.03 48.038Z" fill="#ABCADD"/>
<path d="M1172.34 48.038V39.1429C1172.34 38.5928 1171.89 38.1469 1171.34 38.1469H1163.33C1162.78 38.1469 1162.33 38.5928 1162.33 39.1429V48.038C1162.33 48.5881 1162.78 49.0341 1163.33 49.0341H1171.34C1171.89 49.0341 1172.34 48.5881 1172.34 48.038Z" fill="#ABCADD"/>
<path d="M1159.66 48.0379V39.1429C1159.66 38.5928 1159.21 38.1469 1158.65 38.1469H1153.65C1153.09 38.1469 1152.65 38.5928 1152.65 39.1429V48.0379C1152.65 48.588 1153.09 49.034 1153.65 49.034H1158.65C1159.21 49.034 1159.66 48.588 1159.66 48.0379Z" fill="#ABCADD"/>
<path d="M1149.98 47.9483V39.2325C1149.98 38.6329 1149.49 38.1469 1148.89 38.1469H1139.06C1138.45 38.1469 1137.97 38.6329 1137.97 39.2325V47.9483C1137.97 48.5479 1138.45 49.0341 1139.06 49.0341H1148.89C1149.49 49.0341 1149.98 48.5479 1149.98 47.9483Z" fill="#ABCADD"/>
<path d="M1135.29 48.038V39.0732C1135.29 38.5231 1134.84 38.0771 1134.29 38.0771H1129.28C1128.73 38.0771 1128.28 38.5231 1128.28 39.0732V48.038C1128.28 48.5881 1128.73 49.0341 1129.28 49.0341H1134.29C1134.84 49.0341 1135.29 48.5881 1135.29 48.038Z" fill="#ABCADD"/>
<path d="M1125.61 48.0378V39.0731C1125.61 38.523 1125.16 38.077 1124.61 38.077H1120.6C1120.05 38.077 1119.6 38.523 1119.6 39.0731V48.0378C1119.6 48.588 1120.05 49.0339 1120.6 49.0339H1124.61C1125.16 49.0339 1125.61 48.588 1125.61 48.0378Z" fill="#ABCADD"/>
<path d="M838.21 48.3767V38.5354C838.21 38.2273 837.959 37.9776 837.649 37.9776H835.266C834.956 37.9776 834.705 38.2273 834.705 38.5354V48.3767C834.705 48.6848 834.956 48.9345 835.266 48.9345H837.649C837.959 48.9345 838.21 48.6848 838.21 48.3767Z" fill="#ABCADD"/>
<path d="M832.201 47.9882V38.9239C832.201 38.4013 831.775 37.9776 831.25 37.9776H823.139C822.613 37.9776 822.188 38.4013 822.188 38.9239V47.9882C822.188 48.5108 822.613 48.9345 823.139 48.9345H831.25C831.775 48.9345 832.201 48.5108 832.201 47.9882Z" fill="#ABCADD"/>
<path d="M820.185 48.3767V38.5354C820.185 38.2273 819.934 37.9776 819.624 37.9776H817.241C816.931 37.9776 816.68 38.2273 816.68 38.5354V48.3767C816.68 48.6848 816.931 48.9345 817.241 48.9345H819.624C819.934 48.9345 820.185 48.6848 820.185 48.3767Z" fill="#ABCADD"/>
<path d="M814.176 47.9882V38.9239C814.176 38.4013 813.75 37.9776 813.225 37.9776H805.114C804.588 37.9776 804.163 38.4013 804.163 38.9239V47.9882C804.163 48.5108 804.588 48.9345 805.114 48.9345H813.225C813.75 48.9345 814.176 48.5108 814.176 47.9882Z" fill="#ABCADD"/>
<path d="M802.16 48.3767V38.5354C802.16 38.2273 801.909 37.9776 801.599 37.9776H799.216C798.906 37.9776 798.655 38.2273 798.655 38.5354V48.3767C798.655 48.6848 798.906 48.9345 799.216 48.9345H801.599C801.909 48.9345 802.16 48.6848 802.16 48.3767Z" fill="#ABCADD"/>
<path d="M796.151 47.9882V38.9239C796.151 38.4013 795.725 37.9776 795.2 37.9776H787.089C786.563 37.9776 786.138 38.4013 786.138 38.9239V47.9882C786.138 48.5108 786.563 48.9345 787.089 48.9345H795.2C795.725 48.9345 796.151 48.5108 796.151 47.9882Z" fill="#ABCADD"/>
<path d="M784.135 48.3767V38.5354C784.135 38.2273 783.884 37.9776 783.574 37.9776H781.191C780.881 37.9776 780.63 38.2273 780.63 38.5354V48.3767C780.63 48.6848 780.881 48.9345 781.191 48.9345H783.574C783.884 48.9345 784.135 48.6848 784.135 48.3767Z" fill="#ABCADD"/>
<path d="M778.126 48.3767V38.5354C778.126 38.2273 777.875 37.9776 777.566 37.9776H775.182C774.873 37.9776 774.622 38.2273 774.622 38.5354V48.3767C774.622 48.6848 774.873 48.9345 775.182 48.9345H777.566C777.875 48.9345 778.126 48.6848 778.126 48.3767Z" fill="#ABCADD"/>
<path d="M1270.54 35.1586H1210C1209.29 35.1586 1208.72 35.725 1208.72 36.4237V49.8309C1208.72 50.5296 1209.29 51.0959 1210 51.0959H1270.54C1271.24 51.0959 1271.81 50.5296 1271.81 49.8309V36.4237C1271.81 35.725 1271.24 35.1586 1270.54 35.1586Z" fill="#698295"/>
<path d="M1267.93 37.1508H1212.61C1212.03 37.1508 1211.56 37.619 1211.56 38.1966V48.0579C1211.56 48.6355 1212.03 49.1037 1212.61 49.1037H1267.93C1268.51 49.1037 1268.98 48.6355 1268.98 48.0579V38.1966C1268.98 37.619 1268.51 37.1508 1267.93 37.1508Z" fill="#3E515B"/>
<path d="M1235.76 39.1429H1215.56C1215.01 39.1429 1214.56 39.5889 1214.56 40.139C1214.56 40.6891 1215.01 41.1351 1215.56 41.1351H1235.76C1236.31 41.1351 1236.76 40.6891 1236.76 40.139C1236.76 39.5889 1236.31 39.1429 1235.76 39.1429Z" fill="#ABCADD"/>
<path d="M1260.8 43.1273H1215.56C1215.01 43.1273 1214.56 43.5732 1214.56 44.1233C1214.56 44.6735 1215.01 45.1194 1215.56 45.1194H1260.8C1261.35 45.1194 1261.8 44.6735 1261.8 44.1233C1261.8 43.5732 1261.35 43.1273 1260.8 43.1273Z" fill="#ABCADD"/>
<path d="M1287.33 48.1077C1290.37 48.1077 1292.84 45.6549 1292.84 42.6292C1292.84 39.6035 1290.37 37.1508 1287.33 37.1508C1284.29 37.1508 1281.83 39.6035 1281.83 42.6292C1281.83 45.6549 1284.29 48.1077 1287.33 48.1077Z" fill="#698295"/>
<path d="M971.895 50.0998C974.937 50.0998 977.403 47.6471 977.403 44.6214C977.403 41.5957 974.937 39.1429 971.895 39.1429C968.853 39.1429 966.388 41.5957 966.388 44.6214C966.388 47.6471 968.853 50.0998 971.895 50.0998Z" fill="#26C694"/>
<path d="M1000.94 50.0998C1003.98 50.0998 1006.44 47.6471 1006.44 44.6214C1006.44 41.5957 1003.98 39.1429 1000.94 39.1429C997.894 39.1429 995.428 41.5957 995.428 44.6214C995.428 47.6471 997.894 50.0998 1000.94 50.0998Z" fill="#EF4B9D"/>
<path d="M1287.33 46.1155C1289.27 46.1155 1290.84 44.5547 1290.84 42.6292C1290.84 40.7038 1289.27 39.1429 1287.33 39.1429C1285.4 39.1429 1283.83 40.7038 1283.83 42.6292C1283.83 44.5547 1285.4 46.1155 1287.33 46.1155Z" fill="#ABCADD"/>
<path d="M1307.36 48.1077C1310.4 48.1077 1312.87 45.6549 1312.87 42.6292C1312.87 39.6035 1310.4 37.1508 1307.36 37.1508C1304.32 37.1508 1301.85 39.6035 1301.85 42.6292C1301.85 45.6549 1304.32 48.1077 1307.36 48.1077Z" fill="#698295"/>
<path d="M1307.36 46.1155C1309.3 46.1155 1310.87 44.5547 1310.87 42.6292C1310.87 40.7038 1309.3 39.1429 1307.36 39.1429C1305.42 39.1429 1303.86 40.7038 1303.86 42.6292C1303.86 44.5547 1305.42 46.1155 1307.36 46.1155Z" fill="#ABCADD"/>
</svg>
