<svg width="429" height="159" viewBox="0 0 429 159" fill="none" xmlns="http://www.w3.org/2000/svg">
<rect x="55.0189" width="12" height="100" fill="#678092"/>
<rect x="59.0189" y="14" width="5" height="67" rx="2.5" fill="#80A0B6"/>
<rect x="367.019" width="12" height="100" fill="#678092"/>
<rect x="371.019" y="14" width="5" height="67" rx="2.5" fill="#80A0B6"/>
<rect x="10" y="97" width="408.151" height="52" rx="6" fill="#0D3449" stroke="#678092" stroke-width="20"/>
<rect x="10" y="97" width="408.151" height="52" rx="26" stroke="#80A0B6" stroke-width="8" stroke-linecap="round" stroke-linejoin="round" stroke-dasharray="1 60"/>
<path d="M167.755 118.039L164.24 124.273V128.352C164.24 128.828 164.2 129.27 164.122 129.676C164.044 130.074 163.88 130.395 163.63 130.637C163.388 130.879 163.005 131 162.482 131C161.958 131 161.568 130.879 161.31 130.637C161.06 130.395 160.896 130.074 160.818 129.676C160.74 129.27 160.7 128.828 160.7 128.352V124.273L157.208 118.039C157.021 117.711 156.841 117.391 156.669 117.078C156.497 116.758 156.411 116.438 156.411 116.117C156.411 115.906 156.47 115.695 156.587 115.484C156.712 115.266 156.935 115.062 157.255 114.875C157.607 114.688 157.935 114.594 158.24 114.594C158.7 114.594 159.083 114.785 159.388 115.168C159.7 115.543 159.958 115.953 160.161 116.398L162.294 120.875H162.669L164.802 116.398C165.005 115.953 165.259 115.543 165.564 115.168C165.876 114.785 166.263 114.594 166.724 114.594C167.021 114.594 167.349 114.688 167.708 114.875C168.013 115.062 168.228 115.266 168.353 115.484C168.486 115.695 168.552 115.906 168.552 116.117C168.552 116.266 168.49 116.492 168.365 116.797C168.302 116.953 168.22 117.137 168.118 117.348C168.017 117.559 167.896 117.789 167.755 118.039ZM168.786 126.242V119.234C168.786 118.469 168.896 117.828 169.115 117.312C169.333 116.781 169.615 116.34 169.958 115.988C170.302 115.637 170.677 115.363 171.083 115.168C171.286 115.066 171.486 114.98 171.681 114.91C171.884 114.84 172.083 114.777 172.279 114.723C172.669 114.621 173.017 114.559 173.322 114.535C173.634 114.512 173.865 114.5 174.013 114.5H174.411C174.56 114.5 174.79 114.512 175.103 114.535C175.415 114.559 175.763 114.621 176.146 114.723C176.536 114.816 176.935 114.965 177.341 115.168C177.732 115.355 178.103 115.633 178.454 116C178.782 116.352 179.052 116.793 179.263 117.324C179.482 117.848 179.591 118.484 179.591 119.234V126.242C179.591 127.016 179.486 127.672 179.275 128.211C179.056 128.75 178.782 129.199 178.454 129.559C178.126 129.918 177.755 130.199 177.341 130.402C176.95 130.605 176.552 130.762 176.146 130.871C175.763 130.973 175.415 131.035 175.103 131.059C174.79 131.082 174.56 131.094 174.411 131.094H174.013C173.872 131.094 173.642 131.082 173.322 131.059C173.009 131.035 172.661 130.973 172.279 130.871C171.896 130.77 171.497 130.613 171.083 130.402C170.677 130.199 170.302 129.918 169.958 129.559C169.622 129.199 169.341 128.75 169.115 128.211C168.896 127.672 168.786 127.016 168.786 126.242ZM172.677 119.047V126.688C172.685 126.961 172.751 127.215 172.876 127.449C172.978 127.645 173.13 127.82 173.333 127.977C173.544 128.133 173.841 128.211 174.224 128.211C174.599 128.211 174.888 128.133 175.091 127.977C175.294 127.82 175.447 127.645 175.548 127.449C175.657 127.215 175.724 126.961 175.747 126.688V119.047C175.724 118.773 175.657 118.52 175.548 118.285C175.447 118.098 175.294 117.926 175.091 117.77C174.888 117.605 174.599 117.523 174.224 117.523C173.841 117.523 173.544 117.605 173.333 117.77C173.13 117.926 172.978 118.098 172.876 118.285C172.751 118.512 172.685 118.766 172.677 119.047ZM182.45 126.195V117.266C182.45 116.766 182.493 116.316 182.579 115.918C182.673 115.512 182.857 115.191 183.13 114.957C183.411 114.715 183.833 114.594 184.396 114.594C184.974 114.594 185.4 114.711 185.673 114.945C185.954 115.18 186.134 115.5 186.212 115.906C186.298 116.305 186.341 116.758 186.341 117.266V126.5C186.365 126.836 186.435 127.141 186.552 127.414C186.661 127.672 186.825 127.891 187.044 128.07C187.271 128.242 187.552 128.328 187.888 128.328C188.232 128.328 188.517 128.242 188.743 128.07C188.97 127.898 189.134 127.68 189.236 127.414C189.361 127.133 189.427 126.828 189.435 126.5V117.266C189.435 116.758 189.474 116.305 189.552 115.906C189.638 115.5 189.818 115.18 190.091 114.945C190.372 114.711 190.802 114.594 191.38 114.594C191.95 114.594 192.372 114.715 192.646 114.957C192.919 115.191 193.099 115.512 193.185 115.918C193.279 116.316 193.325 116.766 193.325 117.266V126.195C193.325 127.008 193.197 127.719 192.939 128.328C192.681 128.93 192.31 129.438 191.825 129.852C190.857 130.68 189.544 131.094 187.888 131.094C186.247 131.094 184.939 130.672 183.962 129.828C183.486 129.414 183.115 128.902 182.849 128.293C182.583 127.684 182.45 126.984 182.45 126.195ZM196.607 128.281V117.266C196.607 116.766 196.634 116.316 196.689 115.918C196.751 115.512 196.907 115.191 197.157 114.957C197.407 114.715 197.81 114.594 198.365 114.594H202.232C203.2 114.641 204.06 114.844 204.81 115.203C205.13 115.359 205.443 115.551 205.747 115.777C206.06 116.004 206.337 116.289 206.579 116.633C206.822 116.969 207.017 117.371 207.165 117.84C207.314 118.301 207.388 118.836 207.388 119.445C207.388 119.703 207.349 120 207.271 120.336C207.193 120.672 207.064 121.023 206.884 121.391C206.767 121.641 206.591 121.895 206.357 122.152C206.138 122.395 205.868 122.617 205.548 122.82C205.236 123.023 204.865 123.188 204.435 123.312C205.075 123.562 205.63 123.957 206.099 124.496C206.568 125.035 206.802 125.781 206.802 126.734V128.398C206.802 128.492 206.825 128.57 206.872 128.633C206.919 128.695 206.966 128.75 207.013 128.797C207.193 128.977 207.302 129.137 207.341 129.277C207.372 129.402 207.388 129.516 207.388 129.617C207.388 130.141 207.197 130.52 206.814 130.754C206.431 130.98 205.997 131.094 205.513 131.094C204.966 131.094 204.454 130.93 203.978 130.602C203.501 130.266 203.263 129.805 203.263 129.219V126.734C203.263 126.016 203.146 125.441 202.911 125.012C202.677 124.582 202.193 124.367 201.458 124.367H200.146V128.281C200.146 128.797 200.115 129.262 200.052 129.676C199.99 130.082 199.833 130.406 199.583 130.648C199.341 130.883 198.935 131 198.365 131C197.81 131 197.407 130.883 197.157 130.648C196.907 130.406 196.751 130.082 196.689 129.676C196.634 129.262 196.607 128.797 196.607 128.281ZM200.146 117.359V121.742H201.74C202.13 121.727 202.482 121.633 202.794 121.461C203.107 121.297 203.361 121.051 203.556 120.723C203.751 120.395 203.849 119.969 203.849 119.445C203.849 118.977 203.751 118.59 203.556 118.285C203.368 117.98 203.13 117.758 202.841 117.617C202.56 117.469 202.224 117.383 201.833 117.359H200.146ZM217.607 114.594H222.177C222.646 114.594 223.083 114.633 223.49 114.711C223.904 114.789 224.236 114.953 224.486 115.203C224.743 115.445 224.872 115.82 224.872 116.328C224.872 116.836 224.743 117.215 224.486 117.465C224.236 117.707 223.904 117.867 223.49 117.945C223.083 118.023 222.646 118.062 222.177 118.062H219.388V121.109H220.865C221.333 121.109 221.771 121.145 222.177 121.215C222.591 121.277 222.923 121.434 223.173 121.684C223.431 121.926 223.56 122.312 223.56 122.844C223.56 123.375 223.435 123.766 223.185 124.016C222.935 124.258 222.603 124.414 222.189 124.484C221.782 124.547 221.341 124.578 220.865 124.578H219.388V128.305C219.388 128.812 219.357 129.27 219.294 129.676C219.232 130.082 219.075 130.406 218.825 130.648C218.575 130.883 218.169 131 217.607 131C217.044 131 216.638 130.883 216.388 130.648C216.138 130.414 215.982 130.094 215.919 129.688C215.857 129.281 215.825 128.82 215.825 128.305V117.289C215.825 116.781 215.857 116.324 215.919 115.918C215.982 115.512 216.138 115.191 216.388 114.957C216.638 114.715 217.044 114.594 217.607 114.594ZM227.263 129.266V117.289C227.263 116.805 227.302 116.359 227.38 115.953C227.458 115.539 227.622 115.211 227.872 114.969C228.13 114.719 228.521 114.594 229.044 114.594C229.607 114.594 230.017 114.715 230.275 114.957C230.54 115.191 230.708 115.512 230.779 115.918C230.857 116.324 230.896 116.781 230.896 117.289V127.555H233.193C233.661 127.555 234.091 127.594 234.482 127.672C234.88 127.75 235.197 127.91 235.431 128.152C235.673 128.395 235.794 128.766 235.794 129.266C235.794 129.773 235.673 130.152 235.431 130.402C235.197 130.645 234.884 130.805 234.493 130.883C234.103 130.961 233.669 131 233.193 131H229.865C229.029 131 228.384 130.906 227.931 130.719C227.486 130.531 227.263 130.047 227.263 129.266ZM239.919 114.594H244.513C244.982 114.594 245.419 114.629 245.825 114.699C246.24 114.762 246.572 114.91 246.822 115.145C247.079 115.379 247.208 115.75 247.208 116.258C247.208 116.766 247.079 117.137 246.822 117.371C246.572 117.605 246.24 117.758 245.825 117.828C245.419 117.891 244.982 117.922 244.513 117.922H241.724V121.109H243.2C243.661 121.109 244.091 121.141 244.49 121.203C244.888 121.258 245.208 121.398 245.45 121.625C245.7 121.844 245.825 122.203 245.825 122.703C245.825 123.203 245.7 123.566 245.45 123.793C245.208 124.012 244.888 124.152 244.49 124.215C244.091 124.27 243.661 124.297 243.2 124.297H241.724V127.672H244.513C244.982 127.672 245.419 127.703 245.825 127.766C246.24 127.828 246.572 127.977 246.822 128.211C247.079 128.438 247.208 128.805 247.208 129.312C247.208 129.828 247.079 130.207 246.822 130.449C246.564 130.684 246.228 130.836 245.814 130.906C245.407 130.969 244.974 131 244.513 131H239.919C239.365 131 238.962 130.879 238.712 130.637C238.47 130.395 238.318 130.07 238.255 129.664C238.193 129.258 238.161 128.805 238.161 128.305V117.289C238.161 116.789 238.193 116.336 238.255 115.93C238.318 115.523 238.47 115.199 238.712 114.957C238.962 114.715 239.365 114.594 239.919 114.594ZM251.474 114.594H256.068C256.536 114.594 256.974 114.629 257.38 114.699C257.794 114.762 258.126 114.91 258.376 115.145C258.634 115.379 258.763 115.75 258.763 116.258C258.763 116.766 258.634 117.137 258.376 117.371C258.126 117.605 257.794 117.758 257.38 117.828C256.974 117.891 256.536 117.922 256.068 117.922H253.279V121.109H254.755C255.216 121.109 255.646 121.141 256.044 121.203C256.443 121.258 256.763 121.398 257.005 121.625C257.255 121.844 257.38 122.203 257.38 122.703C257.38 123.203 257.255 123.566 257.005 123.793C256.763 124.012 256.443 124.152 256.044 124.215C255.646 124.27 255.216 124.297 254.755 124.297H253.279V127.672H256.068C256.536 127.672 256.974 127.703 257.38 127.766C257.794 127.828 258.126 127.977 258.376 128.211C258.634 128.438 258.763 128.805 258.763 129.312C258.763 129.828 258.634 130.207 258.376 130.449C258.118 130.684 257.782 130.836 257.368 130.906C256.962 130.969 256.529 131 256.068 131H251.474C250.919 131 250.517 130.879 250.267 130.637C250.025 130.395 249.872 130.07 249.81 129.664C249.747 129.258 249.716 128.805 249.716 128.305V117.289C249.716 116.789 249.747 116.336 249.81 115.93C249.872 115.523 250.025 115.199 250.267 114.957C250.517 114.715 250.919 114.594 251.474 114.594ZM262.419 114.594H268.372C268.841 114.594 269.279 114.629 269.685 114.699C270.091 114.762 270.419 114.91 270.669 115.145C270.919 115.379 271.044 115.75 271.044 116.258C271.044 116.758 270.919 117.125 270.669 117.359C270.419 117.594 270.091 117.746 269.685 117.816C269.279 117.887 268.841 117.922 268.372 117.922H267.177V128.328C267.177 128.828 267.146 129.281 267.083 129.688C267.021 130.094 266.865 130.414 266.615 130.648C266.372 130.883 265.966 131 265.396 131C264.833 131 264.427 130.883 264.177 130.648C263.927 130.414 263.771 130.094 263.708 129.688C263.646 129.281 263.615 128.828 263.615 128.328V117.922H262.419C261.958 117.922 261.521 117.887 261.107 117.816C260.7 117.746 260.372 117.594 260.122 117.359C259.872 117.125 259.747 116.758 259.747 116.258C259.747 115.75 259.872 115.379 260.122 115.145C260.372 114.91 260.7 114.762 261.107 114.699C261.521 114.629 261.958 114.594 262.419 114.594Z" fill="white"/>
</svg>
